<?xml version="1.0" encoding="iso-8859-1"?>
<!-- Generator: Adobe Illustrator 16.0.0, SVG Export Plug-In . SVG Version: 6.00 Build 0)  -->
<!DOCTYPE svg PUBLIC "-//W3C//DTD SVG 1.1//EN" "http://www.w3.org/Graphics/SVG/1.1/DTD/svg11.dtd">
<svg version="1.1" id="Capa_1" xmlns="http://www.w3.org/2000/svg" xmlns:xlink="http://www.w3.org/1999/xlink" x="0px" y="0px"
	 width="34.35px" height="54.89px" viewBox="0 0 34.35 54.89" style="enable-background:new 0 0 34.35 54.89;" xml:space="preserve"
	>
<path d="M21.865,26.662c0.61-1.165,0.862-2.836,1.012-3.14c0.152-0.303,2.176-0.251,3.343-0.251c1.164,0,2.581,0,4.354-0.205
	c1.771-0.2,3.239-0.859,3.644-1.266c0.403-0.405-0.151-2.834-1.163-4.809c-1.011-1.974-3.492-4.506-3.95-5.113
	c-0.455-0.607,0.406-3.342,0.507-3.846c0.1-0.508-0.251-0.508-0.76-1.063c-0.505-0.558-1.669-0.607-1.669-0.607
	s-1.172-5.274-6.889-6.198c-6.864-1.107-9.464,3.768-9.464,3.768s-0.051-0.101-0.504-0.101c-0.458,0-0.61,0.051-1.064,0.557
	C8.803,4.895,7.995,5.299,7.692,5.856S7.587,8.184,7.743,8.942c0.15,0.76-0.253,0.812-1.268,1.724
	c-1.012,0.909-3.645,3.543-4.457,4.908c-0.808,1.367-1.262,2.228-1.262,3.089s2.326,2.127,4.857,2.784
	c2.532,0.658,4.305-0.052,4.253,0.456c-0.052,0.506,0.911,3.644,1.013,4.709c0.101,1.063,0.152,2.024-0.304,2.732
	c-0.455,0.71-0.556,1.873-0.963,3.137c-0.407,1.267-1.467,4.205-2.278,6.837c-0.809,2.631-0.556,5.264-0.758,7.139
	c-0.201,1.871,1.215,2.124,1.215,2.124l-0.239,1.203H0v5.105h31.706v-5.105h-9.488c-0.041-0.954-0.085-2.99,0.254-3.583
	c0.609-1.063,3.191-4.454,3.999-5.973c0.811-1.52,1.621-3.393,1.417-4.354c-0.201-0.962-1.518-1.569-2.124-1.975
	c-0.609-0.404-2.277-1.619-3.342-1.873c-1.063-0.254-1.924-0.96-1.924-0.96s-0.101-1.217-0.051-1.823
	C20.498,28.637,21.259,27.825,21.865,26.662z M27.384,12.74c0,0,0.761,0.508,0.761,0.912c0,0.405,1.266,2.936,1.565,3.795
	c0.305,0.861,0.714,1.925,0.714,1.925s-0.914,0.052-1.522-0.102c-0.607-0.151-1.162-0.252-1.162-0.252s0.254-0.204-0.256-0.458
	c-0.504-0.252-1.215-0.201-1.416-0.252c-0.202-0.05-0.253,0.002-0.455-0.253c-0.202-0.254-0.458-0.506-0.708-0.456
	c-0.255,0.052-0.86-0.304-0.86-0.304S26.829,15.727,27.384,12.74z M7.64,40.84c-0.29,1.447-0.664,5.093-0.664,5.093
	s0.084-3.313,0.291-4.804s1.448-4.722,1.448-4.722S7.929,39.391,7.64,40.84z M8.012,6.007c0.413-0.458,0.665-0.622,0.995-0.912
	C9.336,4.804,9.463,4.597,9.628,4.43c0.166-0.164,0.62-0.205,0.745-0.205c0.124,0-0.54,0.495-0.912,0.827
	c-0.373,0.333-0.746,0.79-0.993,1.203c-0.25,0.413-0.415,2.36-0.415,2.36L8.012,8.531C8.012,8.531,7.599,6.462,8.012,6.007z
	 M7.133,17.55c-0.757,0-1.466-0.05-1.466-0.05s0.709-1.823,1.164-3.089c0.457-1.267,2.177-3.138,2.177-3.138
	s0.202,2.074,1.061,3.544c0.862,1.467,2.482,2.378,2.482,2.378s-1.772-0.153-2.43-0.102c-0.656,0.052-1.924,0.558-1.924,0.558
	S7.894,17.55,7.133,17.55z M8.855,17.791c0,0,0.784-0.415,1.66-0.368c0.874,0.046,1.98,0.323,1.98,0.323S9.548,17.699,8.855,17.791z
	 M22.626,38.052c0.455,0.102-0.508,0.861-1.114,1.57c-0.607,0.708-0.607,2.023-0.659,2.733c-0.05,0.707-0.96,3.036-1.265,3.695
	c-0.305,0.658-0.91,0.81-1.369,1.518c-0.236,0.371,0.166,1.559,0.497,2.216h-8.115c0.047-0.402,0.129-0.904,0.129-1.101
	c0-0.964,0.654-2.531,0.654-3.139s-0.453-0.709-0.453-0.709s0.811-1.367,1.673-2.937c0.858-1.569,1.323-3.891,1.62-4.202
	c0.291-0.309,0.605-0.201,1.315-0.201c0.706,0,1.263-0.052,1.263-0.052s1.417,0.455,2.786,0.558
	C20.952,38.104,22.168,37.951,22.626,38.052z"/>
<g>
</g>
<g>
</g>
<g>
</g>
<g>
</g>
<g>
</g>
<g>
</g>
<g>
</g>
<g>
</g>
<g>
</g>
<g>
</g>
<g>
</g>
<g>
</g>
<g>
</g>
<g>
</g>
<g>
</g>
</svg>
