<?xml version="1.0" encoding="iso-8859-1"?>
<!-- Generator: Adobe Illustrator 16.0.0, SVG Export Plug-In . SVG Version: 6.00 Build 0)  -->
<!DOCTYPE svg PUBLIC "-//W3C//DTD SVG 1.1//EN" "http://www.w3.org/Graphics/SVG/1.1/DTD/svg11.dtd">
<svg version="1.1" id="Capa_1" xmlns="http://www.w3.org/2000/svg" xmlns:xlink="http://www.w3.org/1999/xlink" x="0px" y="0px"
	 width="29.553px" height="55.668px" viewBox="0 0 29.553 55.668" style="enable-background:new 0 0 29.553 55.668;"
	 xml:space="preserve">
<path d="M0.254,18.155l4.46,1.957v32.738l-3.338,0.981v1.836h28.177v-1.955l-4.217-0.862c0.633-3.983,2.025-16.104-2.255-27.221
	c-1.286-3.341-2.954-6.311-4.735-8.9c0.044-0.838,0.202-1.824,0.684-2.043c0.871-0.393,2.113-0.393,2.113-0.727
	c0-0.335-0.186-1.062-2.236-1.173c-1.46-0.081-2.633,0.263-3.192,0.47C12.109,8.907,8.557,6.1,7.084,5.021L6.452,4.661H6.288V0
	H5.351v4.661H4.714v12.228l-1.166-0.635c0,0-1.121-0.114-2.052,0.054c-0.932,0.168-1.554,0.615-1.492,1.176
	C0.067,18.043,0.254,18.155,0.254,18.155z M20.366,31.273c1.737,11.89,0,20.181,0,20.181h-4.902
	c0.198-1.178,2.065-8.829,0.536-21.391c-1.641-13.5-6.978-21.526-6.978-21.526S18.351,17.472,20.366,31.273z M8.052,11.384
	c0.651,1.468,1.5,3.574,2.365,6.289H8.052V11.384z M8.052,19.755h2.995c0.092,0.324,0.186,0.654,0.277,0.992H8.052V19.755z
	 M8.052,21.411h3.45c0.147,0.551,0.29,1.114,0.43,1.7c0.007,0.026,0.012,0.048,0.017,0.075H8.052V21.411z M8.052,23.853h4.046
	c0.132,0.587,0.256,1.18,0.372,1.773H8.052V23.853z M8.052,26.292H12.6c0.109,0.59,0.208,1.18,0.299,1.773H8.052V26.292z
	 M8.052,28.729h4.946c0.025,0.188,0.053,0.374,0.079,0.562H8.052V28.729z M8.052,31.373h5.288c0.034,0.304,0.065,0.604,0.096,0.906
	H8.052V31.373z M8.052,32.944h5.447c0.056,0.597,0.104,1.188,0.147,1.774H8.052V32.944z M8.052,35.384h5.644
	c0.038,0.601,0.071,1.19,0.101,1.774H8.052V35.384z M8.052,37.823h5.775c0.027,0.604,0.046,1.193,0.062,1.774H8.052V37.823z
	 M8.052,40.265h5.854c0.006,0.227,0.008,0.453,0.012,0.677H8.052V40.265z M8.052,43.025h5.877c0,0.263-0.002,0.521-0.006,0.777
	H8.052V43.025z M8.052,44.47h5.864c-0.01,0.623-0.024,1.215-0.04,1.774H8.052V44.47z M8.052,46.907h5.802
	c-0.025,0.648-0.052,1.244-0.079,1.776H8.052V46.907z M8.052,49.347h5.685c-0.045,0.792-0.09,1.394-0.123,1.776H8.052V49.347z"/>
<g>
</g>
<g>
</g>
<g>
</g>
<g>
</g>
<g>
</g>
<g>
</g>
<g>
</g>
<g>
</g>
<g>
</g>
<g>
</g>
<g>
</g>
<g>
</g>
<g>
</g>
<g>
</g>
<g>
</g>
</svg>
