<?xml version="1.0" encoding="iso-8859-1"?>
<!-- Generator: Adobe Illustrator 16.0.0, SVG Export Plug-In . SVG Version: 6.00 Build 0)  -->
<!DOCTYPE svg PUBLIC "-//W3C//DTD SVG 1.1//EN" "http://www.w3.org/Graphics/SVG/1.1/DTD/svg11.dtd">
<svg version="1.1" id="Capa_1" xmlns="http://www.w3.org/2000/svg" xmlns:xlink="http://www.w3.org/1999/xlink" x="0px" y="0px"
	 width="48.755px" height="51.69px" viewBox="0 0 48.755 51.69" style="enable-background:new 0 0 48.755 51.69;"
	 xml:space="preserve">
<g>
	<polygon points="46.733,49.408 46.733,16.683 46.305,16.683 46.305,1.329 45.191,1.329 45.191,0 44.014,0 44.014,1.329 
		42.773,1.329 42.773,5.239 37.529,5.239 37.529,1.329 36.344,1.329 36.344,0 35.167,0 35.167,1.329 33.996,1.329 33.996,16.683 
		31.371,16.683 24.607,8.975 17.841,16.683 13.304,16.683 13.304,15.772 10.894,15.772 10.894,16.683 4.278,16.683 4.278,15.772 
		1.867,15.772 1.867,18.105 1.888,18.105 1.888,49.408 0,49.408 0,51.69 48.755,51.69 48.755,49.408 	"/>
	<path d="M42.082,41.234c-0.548-1.169-1.956-2.935-2.192-3.231h-0.046c-0.238,0.297-1.644,2.062-2.194,3.231
		c-0.6,1.277-0.514,2.956-0.514,2.956v4.957h5.462V44.19C42.597,44.19,42.683,42.512,42.082,41.234z"/>
	<path d="M10.99,41.234c-0.549-1.169-1.956-2.935-2.194-3.231H8.751c-0.239,0.297-1.647,2.062-2.195,3.231
		c-0.6,1.277-0.515,2.956-0.515,2.956v4.957h5.463V44.19C11.504,44.19,11.589,42.512,10.99,41.234z"/>
	<path d="M28.105,40.395c-0.783-1.305-2.791-3.283-3.129-3.614h-0.064c-0.337,0.331-2.346,2.31-3.128,3.614
		c-0.857,1.428-0.734,3.304-0.734,3.304v5.546h7.79v-5.546C28.839,43.698,28.961,41.822,28.105,40.395z"/>
	<path d="M24.896,21.193c-2.521,0-4.563,2.043-4.563,4.564c0,2.52,2.043,4.562,4.563,4.562c2.52,0,4.565-2.043,4.565-4.562
		C29.461,23.236,27.416,21.193,24.896,21.193z M24.896,29.076c-1.833,0-3.319-1.485-3.319-3.318c0-1.832,1.487-3.319,3.319-3.319
		c1.832,0,3.319,1.487,3.319,3.319C28.214,27.591,26.728,29.076,24.896,29.076z"/>
</g>
<g>
</g>
<g>
</g>
<g>
</g>
<g>
</g>
<g>
</g>
<g>
</g>
<g>
</g>
<g>
</g>
<g>
</g>
<g>
</g>
<g>
</g>
<g>
</g>
<g>
</g>
<g>
</g>
<g>
</g>
</svg>
