<?xml version="1.0" encoding="iso-8859-1"?>
<!-- Generator: Adobe Illustrator 16.0.0, SVG Export Plug-In . SVG Version: 6.00 Build 0)  -->
<!DOCTYPE svg PUBLIC "-//W3C//DTD SVG 1.1//EN" "http://www.w3.org/Graphics/SVG/1.1/DTD/svg11.dtd">
<svg version="1.1" id="Capa_1" xmlns="http://www.w3.org/2000/svg" xmlns:xlink="http://www.w3.org/1999/xlink" x="0px" y="0px"
	 width="46.273px" height="51.807px" viewBox="0 0 46.273 51.807" style="enable-background:new 0 0 46.273 51.807;"
	 xml:space="preserve">
<path d="M45.738,49.973h-0.96c0.004-0.023,0.004-0.042,0.004-0.062c0-0.115-0.053-0.22-0.128-0.302
	c0.075-0.087,0.128-0.192,0.128-0.309c0-0.259-0.237-0.464-0.537-0.464H44.08V6.308h0.749v-0.05
	c0.229-0.117,0.398-0.738,0.398-1.493c0-0.755-0.169-1.377-0.398-1.499V3.244h-0.208c0.003-0.012,0.003-0.023,0.003-0.023V2.796
	h0.188V2.48h-8.846v0.315h0.325V3.22c0,0,0,0.012,0.005,0.023H36.1v0.099c-0.179,0.222-0.309,0.769-0.309,1.422
	c0,0.642,0.13,1.198,0.309,1.418v0.124h0.729v42.528h-0.228c-0.298,0-0.534,0.206-0.534,0.464c0,0.117,0.047,0.222,0.127,0.309
	c-0.08,0.083-0.127,0.187-0.127,0.302c0,0.02,0,0.039,0.009,0.062h-0.97c-0.292,0-0.541,0.244-0.541,0.532v0.771
	c0,0.294,0.249,0.532,0.541,0.532h10.633c0.301,0,0.535-0.238,0.535-0.532v-0.771C46.273,50.217,46.039,49.973,45.738,49.973z
	 M11.029,49.999h-0.951c0-0.026,0.012-0.042,0.012-0.064c0-0.113-0.057-0.222-0.139-0.306c0.082-0.078,0.139-0.181,0.139-0.299
	c0-0.25-0.243-0.459-0.539-0.459H9.397V7.041h0.737V6.993c0.22-0.113,0.387-0.732,0.387-1.477c0-0.747-0.167-1.358-0.387-1.477
	V4.018h-0.21C9.928,4.002,9.93,3.992,9.93,3.992V3.571h0.179v-0.31H1.382v0.31h0.319v0.421c0,0,0,0.01,0,0.025H1.518v0.096
	c-0.181,0.22-0.306,0.758-0.306,1.403c0,0.641,0.125,1.189,0.306,1.401v0.124h0.712V48.87H2.01c-0.296,0-0.535,0.21-0.535,0.459
	c0,0.119,0.055,0.221,0.131,0.299c-0.076,0.084-0.131,0.193-0.131,0.306c0,0.021,0.005,0.038,0.008,0.064H0.531
	C0.24,49.999,0,50.235,0,50.524v0.759c0,0.291,0.24,0.524,0.531,0.524h10.498c0.292,0,0.533-0.233,0.533-0.524v-0.759
	C11.562,50.235,11.321,49.999,11.029,49.999z M33.676,50.012h-0.948c0.006-0.021,0.006-0.04,0.006-0.064
	c0-0.111-0.046-0.216-0.128-0.296c0.082-0.078,0.128-0.187,0.128-0.295c0-0.257-0.237-0.467-0.523-0.467h-0.157V7.657
	c0.027,0,0.055,0.007,0.088,0.007c0.939,0.062,1.706-0.402,1.733-1.498C33.9,5.071,32.757,4.64,32.757,4.64h-0.175V4.22h0.179V3.913
	h-8.655V4.22h0.315v0.42h-0.446c0,0-1.142,0.431-1.12,1.526c0.035,1.095,0.8,1.56,1.731,1.498c0.134-0.007,0.255-0.029,0.36-0.058
	V48.89h-0.222c-0.289,0-0.527,0.21-0.527,0.467c0,0.109,0.052,0.218,0.133,0.295c-0.081,0.08-0.133,0.185-0.133,0.296v0.025
	c-0.08-0.042-0.175-0.071-0.278-0.071h-0.998c0.003-0.021,0.003-0.045,0.003-0.064c0-0.124-0.05-0.235-0.138-0.321
	c0.088-0.084,0.138-0.195,0.138-0.317c0-0.269-0.25-0.492-0.56-0.492h-0.166V3.981c0.033,0,0.066,0.006,0.096,0.006
	c1.002,0.068,1.812-0.422,1.839-1.587c0.033-1.165-1.181-1.627-1.181-1.627h-0.193V0.331h0.193V0.003h-0.193V0h-8.436v0.003h-0.57
	v0.327h0.334v0.441h-0.478c0,0-1.216,0.463-1.183,1.627c0.034,1.165,0.844,1.655,1.841,1.587c0.134-0.006,0.264-0.027,0.381-0.064
	v44.784h-0.241c-0.304,0-0.559,0.224-0.559,0.492c0,0.123,0.059,0.233,0.146,0.317c-0.087,0.086-0.146,0.197-0.146,0.321
	c0,0.02,0.009,0.043,0.009,0.064h-1.001c-0.31,0-0.559,0.249-0.559,0.552v0.802c0,0.303,0.249,0.551,0.559,0.551h20.819
	c0.289,0,0.525-0.233,0.525-0.521v-0.754C34.201,50.248,33.965,50.012,33.676,50.012z"/>
<g>
</g>
<g>
</g>
<g>
</g>
<g>
</g>
<g>
</g>
<g>
</g>
<g>
</g>
<g>
</g>
<g>
</g>
<g>
</g>
<g>
</g>
<g>
</g>
<g>
</g>
<g>
</g>
<g>
</g>
</svg>
