<?xml version="1.0" encoding="iso-8859-1"?>
<!-- Generator: Adobe Illustrator 16.0.0, SVG Export Plug-In . SVG Version: 6.00 Build 0)  -->
<!DOCTYPE svg PUBLIC "-//W3C//DTD SVG 1.1//EN" "http://www.w3.org/Graphics/SVG/1.1/DTD/svg11.dtd">
<svg version="1.1" id="Capa_1" xmlns="http://www.w3.org/2000/svg" xmlns:xlink="http://www.w3.org/1999/xlink" x="0px" y="0px"
	 width="18.7px" height="55.668px" viewBox="0 0 18.7 55.668" style="enable-background:new 0 0 18.7 55.668;" xml:space="preserve"
	>
<path d="M18.066,26.668v-0.812H18.7v-0.904h-0.95v-1.038h-0.947v-2.259h0.767v-0.767h-2.266l-1.755-5.193v-1.807h-0.676L9.576,3.727
	H9.467V3.269c0.246-0.053,0.424-0.268,0.424-0.526c0-0.26-0.178-0.476-0.424-0.529V0H9.231v2.213
	c-0.242,0.054-0.424,0.27-0.424,0.529c0,0.259,0.182,0.474,0.424,0.526v0.458H9.124L5.826,13.889H5.149v1.807l-1.755,5.193H1.132
	v0.767h0.768v2.259H0.947v1.038H0v0.904h0.634v0.812h0.313v5.781H0v0.904h0.634v0.813h0.313v21.501H17.75V34.167h0.316v-0.813H18.7
	v-0.904h-0.95v-5.781H18.066z M4.167,22.601c0.455,0,0.823,0.368,0.823,0.822c0,0.05-0.006,0.098-0.014,0.146v1.692H3.36v-1.692
	c-0.011-0.049-0.017-0.097-0.017-0.146C3.344,22.969,3.713,22.601,4.167,22.601z M3.798,39.089v1.35h-1.29v-1.35
	c-0.006-0.039-0.009-0.077-0.009-0.116c0-0.363,0.294-0.656,0.654-0.656c0.361,0,0.654,0.293,0.654,0.656
	C3.808,39.012,3.804,39.05,3.798,39.089z M5.467,29.213v2.48H3.096v-2.48c-0.014-0.069-0.02-0.142-0.02-0.214
	c0-0.665,0.54-1.205,1.204-1.205c0.665,0,1.207,0.54,1.207,1.205C5.487,29.071,5.478,29.144,5.467,29.213z M6.868,23.423
	c0-0.454,0.368-0.822,0.82-0.822c0.457,0,0.824,0.368,0.824,0.822c0,0.05-0.004,0.098-0.012,0.146v1.692H6.882v-1.692
	C6.874,23.521,6.868,23.473,6.868,23.423z M10.098,39.089v1.35h-1.29v-1.35C8.8,39.05,8.797,39.012,8.797,38.973
	c0-0.363,0.294-0.656,0.655-0.656c0.36,0,0.656,0.293,0.656,0.656C10.108,39.012,10.104,39.05,10.098,39.089z M10.636,29.213v2.48
	H8.267v-2.48c-0.013-0.069-0.02-0.142-0.02-0.214c0-0.665,0.54-1.205,1.205-1.205s1.204,0.54,1.204,1.205
	C10.656,29.071,10.649,29.144,10.636,29.213z M12.022,23.569v1.692h-1.618v-1.692c-0.009-0.049-0.015-0.097-0.015-0.146
	c0-0.454,0.368-0.822,0.823-0.822s0.823,0.368,0.823,0.822C12.036,23.473,12.03,23.521,12.022,23.569z M14.735,22.601
	c0.454,0,0.823,0.368,0.823,0.822c0,0.05-0.007,0.098-0.014,0.146v1.692h-1.617v-1.692c-0.009-0.049-0.015-0.097-0.015-0.146
	C13.913,22.969,14.282,22.601,14.735,22.601z M13.416,28.999c0-0.665,0.54-1.205,1.207-1.205c0.666,0,1.204,0.54,1.204,1.205
	c0,0.072-0.007,0.145-0.018,0.214v2.48h-2.371v-2.48C13.425,29.144,13.416,29.071,13.416,28.999z M16.396,39.089v1.35h-1.29v-1.35
	c-0.008-0.039-0.011-0.077-0.011-0.116c0-0.363,0.293-0.656,0.655-0.656s0.657,0.293,0.657,0.656
	C16.407,39.012,16.401,39.05,16.396,39.089z"/>
<g>
</g>
<g>
</g>
<g>
</g>
<g>
</g>
<g>
</g>
<g>
</g>
<g>
</g>
<g>
</g>
<g>
</g>
<g>
</g>
<g>
</g>
<g>
</g>
<g>
</g>
<g>
</g>
<g>
</g>
</svg>
