<?xml version="1.0" encoding="iso-8859-1"?>
<!-- Generator: Adobe Illustrator 16.0.0, SVG Export Plug-In . SVG Version: 6.00 Build 0)  -->
<!DOCTYPE svg PUBLIC "-//W3C//DTD SVG 1.1//EN" "http://www.w3.org/Graphics/SVG/1.1/DTD/svg11.dtd">
<svg version="1.1" id="Capa_1" xmlns="http://www.w3.org/2000/svg" xmlns:xlink="http://www.w3.org/1999/xlink" x="0px" y="0px"
	 width="24.281px" height="55.792px" viewBox="0 0 24.281 55.792" style="enable-background:new 0 0 24.281 55.792;"
	 xml:space="preserve">
<path d="M23.945,54.251l-0.191-0.776h-0.437v-3.121h0.628v-0.481h-0.562v-0.694h-2.126l-0.538-2.248h-0.289v-2.833h0.433v-1.012
	h0.481v-0.821h-5.106v-2.502h-0.494l-0.479-1.253h0.347v-0.625h-0.937l-0.057-0.582h0.288v-0.72h-0.288V18.879l0.234-0.819h0.249
	v-2.746h-1.544v-1.542h-0.45c-0.054-0.132-0.15-0.253-0.271-0.348v-0.777c0.086,0.01,0.171,0.03,0.25,0.051
	c0.203,0.058,0.324-0.084,0.677-0.129c0.35-0.041,0.497,0.031,0.78-0.054c0.287-0.088,0.484-0.545,0.484-0.545
	s-0.133-0.297-0.213-0.582c-0.084-0.286-0.422-0.459-0.566-0.759C14.099,10.327,13.6,9.13,13.6,9.13s0.363-0.288,0.336-0.417
	c-0.024-0.127-0.214-0.061-0.418-0.247C13.316,8.286,13.194,7.3,13.194,7.3s0.312,0.183,0.446,0.211
	c0.133,0.031,0.175-0.084,0.163-0.256c-0.016-0.171-0.016-0.171,0.012-0.315c0.008-0.043-0.003-0.08-0.006-0.119
	c0.358-0.023,0.802-0.101,1.293-0.354c1.113-0.572,1.589-1.621,1.589-1.845c0-0.222-0.412-0.03-1.271,0
	c-0.505,0.02-1.192-0.126-1.677-0.249c0.125-0.289,0.252-0.648,0.22-0.975c-0.047-0.559-0.513-1.112-0.595-1.199l0.021-0.36
	c0.092,0.016,0.178,0,0.246-0.052c0.171-0.125,0.185-0.419,0.033-0.65c-0.062-0.093-0.142-0.164-0.225-0.204l0.007-0.132
	c0,0,0.137-0.115,0.137-0.287C13.587,0.341,13.439,0,13.439,0s-0.165,0.226-0.194,0.399c-0.021,0.169,0.114,0.37,0.114,0.37
	l-0.01,0.126c-0.099-0.023-0.194-0.007-0.271,0.046c-0.17,0.127-0.186,0.417-0.029,0.65c0.062,0.103,0.149,0.173,0.241,0.216
	l-0.094,1.446c-0.05-0.061-0.167-0.173-0.298-0.183c-0.177-0.014-0.527,0.299-0.527,0.299s-0.013-0.216-0.081-0.2
	c-0.066,0.013-0.107,0.157-0.107,0.157S12.1,3.143,11.926,3.143s-0.269,0.154-0.323,0.228c-0.055,0.07-0.025,0.099,0.041,0.07
	c0.067-0.027,0.175-0.057,0.175-0.057s0.096,0.115,0.16,0.115c0.068,0,0.121,0.07,0.137,0.144c0.015,0.07,0,0.155,0,0.155
	s-0.189,0.03-0.244,0.142c-0.053,0.113-0.08,0.286-0.093,0.342c-0.014,0.059-0.149,0.315-0.108,0.459
	c0.041,0.142,0.041,0.255,0.095,0.315c0.054,0.055,0.149,0.127,0.094,0.167c-0.053,0.043-0.147,0.074-0.281-0.04
	c-0.137-0.115-0.271-0.243-0.365-0.3c-0.003,0-0.01-0.003-0.01-0.003c-0.135-0.25-0.246-0.499-0.369-0.568
	c-0.148-0.084-0.348-0.004-0.672,0.112h-0.002c0,0-0.094-0.471-0.203-0.754c-0.109-0.287-0.202-0.44-0.175-0.56
	C9.808,2.997,9.86,2.927,9.86,2.853c0-0.031-0.018-0.094-0.044-0.152c0.036-0.013,0.104-0.053,0.155-0.103
	c0.065-0.073,0.193-0.208,0.145-0.241C10.077,2.328,10.144,2.1,10.144,2.1c-0.066-0.028-0.119-0.358-0.119-0.358
	C9.956,1.799,9.847,1.569,9.847,1.569L9.672,1.553c0,0-0.255-0.013-0.27,0.059C9.39,1.684,9.321,1.643,9.253,1.695
	C9.187,1.756,9.134,1.725,9.12,1.839C9.105,1.958,9.065,2.012,9.094,2.1c0.026,0.084-0.11,0.055-0.067,0.129
	c0.039,0.07,0.039,0.197,0.094,0.225c0.053,0.031-0.026,0.09,0.026,0.145c0.049,0.05,0.143,0.161,0.199,0.192
	c0.012,0.104,0.067,0.25,0.098,0.296c0.041,0.056,0.108,0.158,0.108,0.312c0,0.155,0,0.601,0.12,0.884
	c0.034,0.076,0.071,0.157,0.109,0.238C9.48,4.575,9.136,4.618,8.839,4.591C8.171,4.527,7.822,4.4,7.662,4.496
	C7.504,4.591,8.31,6.25,9.443,6.402c0.436,0.06,0.677,0.066,0.85,0.062c0.072,0.217,0.228,0.582,0.55,0.797
	c0.08,0.052,0.177,0.078,0.269,0.111c-0.051,0.106-0.109,0.263-0.142,0.509c-0.043,0.304-0.338,1.015-0.352,1.187
	c-0.016,0.173,0.352,0.372,0.352,0.372s-0.014,0.358-0.148,0.786c-0.137,0.428-0.501,1.072-0.784,1.37
	c-0.283,0.299-0.31,0.699-0.162,0.903c0.149,0.197,0.486,0.027,0.486,0.027s0.136,0.144,0.323,0.271
	c0.189,0.13,0.338,0.015,0.54-0.012c0.107-0.018,0.179,0.003,0.263,0.033v0.57c-0.146,0.101-0.259,0.228-0.322,0.381h-0.401v1.542
	H9.319v2.746h0.207l0.274,0.819v17.703H9.463v0.72h0.338l-0.025,0.582H8.913v0.625h0.258l-0.382,1.253H8.384v2.502H2.939v0.821
	h0.435v1.012h0.48v2.833H3.518l-0.54,2.248H0.692v0.694h-0.5v0.481h0.435v3.121H0.434l-0.192,0.776H0v1.542h24.281v-1.542H23.945z
	 M13.359,2.371c0.128,0.175,0.501,0.71,0.511,1.043c0.007,0.229-0.108,0.616-0.208,0.938c-0.069-0.02-0.125-0.036-0.181-0.051
	c0.058-0.245,0.118-0.527,0.133-0.732c0.021-0.311-0.173-0.902-0.258-1.148L13.359,2.371z"/>
<g>
</g>
<g>
</g>
<g>
</g>
<g>
</g>
<g>
</g>
<g>
</g>
<g>
</g>
<g>
</g>
<g>
</g>
<g>
</g>
<g>
</g>
<g>
</g>
<g>
</g>
<g>
</g>
<g>
</g>
</svg>
