<?xml version="1.0" encoding="iso-8859-1"?>
<!-- Generator: Adobe Illustrator 16.0.0, SVG Export Plug-In . SVG Version: 6.00 Build 0)  -->
<!DOCTYPE svg PUBLIC "-//W3C//DTD SVG 1.1//EN" "http://www.w3.org/Graphics/SVG/1.1/DTD/svg11.dtd">
<svg version="1.1" id="Capa_1" xmlns="http://www.w3.org/2000/svg" xmlns:xlink="http://www.w3.org/1999/xlink" x="0px" y="0px"
	 width="52.536px" height="55.643px" viewBox="0 0 52.536 55.643" style="enable-background:new 0 0 52.536 55.643;"
	 xml:space="preserve">
<path d="M52.204,50.086c0,0-14.261,1.471-17.097-8.66c-2.834-10.131-5.085-28.189-5.085-28.189s-0.417-2.452-0.833-4.494
	c-0.419-2.043-2.336-8.333-2.336-8.333l-0.5-0.307V0l-0.082,0.049L26.185,0v0.103l-0.5,0.307c0,0-1.92,6.29-2.336,8.333
	c-0.417,2.042-0.833,4.494-0.833,4.494s-2.253,18.059-5.088,28.189c-2.834,10.131-17.096,8.66-17.096,8.66L0,55.643h52.536
	L52.204,50.086z M25.737,11.401c0-0.97,0.686-1.399,0.686-1.399l0.009,0.012l0.008-0.012c0,0,0.686,0.43,0.686,1.399
	c0,0.495,0,2.265,0,2.265h-1.389C25.737,13.666,25.737,11.896,25.737,11.401z M26.065,30.211v-1.654H26.8v1.654H26.065z
	 M26.8,33.092v1.653h-0.735v-1.653H26.8z M26.065,25.677v-1.655H26.8v1.655H26.065z M26.065,21.142v-1.655H26.8v1.655H26.065z
	 M23.981,12.041c0-0.695,0.492-1.006,0.492-1.006l0.006,0.008l0.006-0.008c0,0,0.492,0.311,0.492,1.006c0,0.354,0,1.625,0,1.625
	h-0.996C23.981,13.666,23.981,12.396,23.981,12.041z M28.183,54.906h-3.502v-4.247h3.502V54.906z M28.204,49.453h-3.544
	c0,0,0-7.333,0-8.457c0-2.207,1.752-3.187,1.752-3.187l0.021,0.026l0.021-0.026c0,0,1.75,0.979,1.75,3.187
	C28.204,42.12,28.204,49.453,28.204,49.453z M28.882,13.666h-0.996c0,0,0-1.271,0-1.625c0-0.695,0.492-1.006,0.492-1.006
	l0.007,0.008l0.005-0.008c0,0,0.492,0.311,0.492,1.006C28.882,12.396,28.882,13.666,28.882,13.666z"/>
<g>
</g>
<g>
</g>
<g>
</g>
<g>
</g>
<g>
</g>
<g>
</g>
<g>
</g>
<g>
</g>
<g>
</g>
<g>
</g>
<g>
</g>
<g>
</g>
<g>
</g>
<g>
</g>
<g>
</g>
</svg>
