<?xml version="1.0" encoding="iso-8859-1"?>
<!-- Generator: Adobe Illustrator 16.0.0, SVG Export Plug-In . SVG Version: 6.00 Build 0)  -->
<!DOCTYPE svg PUBLIC "-//W3C//DTD SVG 1.1//EN" "http://www.w3.org/Graphics/SVG/1.1/DTD/svg11.dtd">
<svg version="1.1" id="Capa_1" xmlns="http://www.w3.org/2000/svg" xmlns:xlink="http://www.w3.org/1999/xlink" x="0px" y="0px"
	 width="55.641px" height="44.269px" viewBox="0 0 55.641 44.269" style="enable-background:new 0 0 55.641 44.269;"
	 xml:space="preserve">
<path d="M52.776,39.479c-0.731-2.834-5.413-20.689-9.645-28.931C38.201,0.936,31.446,0,28.064,0c-3.378,0-10.04,0.936-14.97,10.549
	C8.861,18.79,4.179,36.646,3.449,39.479H0v4.789h55.641v-4.789H52.776z M28.143,8.552c-0.014,0-0.024,0-0.031,0c0,0-0.001,0-0.003,0
	C28.12,8.552,28.126,8.552,28.143,8.552z M17.031,17.151c3.131-5.527,6.885-7.871,11.08-7.871c4.197,0,7.952,2.344,11.082,7.871
	c3.122,5.512,7.188,18.035,8.541,22.328h-0.892c-1.239-3.393-5.997-16.215-8.372-20.113c-2.494-4.095-5.86-6.223-10.291-6.503
	h-0.134c-4.43,0.28-7.795,2.408-10.291,6.503c-2.377,3.898-7.132,16.721-8.374,20.113H8.493
	C9.842,35.187,13.909,22.663,17.031,17.151z M44.592,39.479h-32.96c1.537-4.158,5.824-15.561,7.927-19.016
	c2.126-3.487,4.849-5.229,8.553-5.484c3.708,0.255,6.428,1.997,8.556,5.484C38.77,23.919,43.058,35.321,44.592,39.479z"/>
<g>
</g>
<g>
</g>
<g>
</g>
<g>
</g>
<g>
</g>
<g>
</g>
<g>
</g>
<g>
</g>
<g>
</g>
<g>
</g>
<g>
</g>
<g>
</g>
<g>
</g>
<g>
</g>
<g>
</g>
</svg>
