<?xml version="1.0" encoding="iso-8859-1"?>
<!-- Generator: Adobe Illustrator 16.0.0, SVG Export Plug-In . SVG Version: 6.00 Build 0)  -->
<!DOCTYPE svg PUBLIC "-//W3C//DTD SVG 1.1//EN" "http://www.w3.org/Graphics/SVG/1.1/DTD/svg11.dtd">
<svg version="1.1" id="Capa_1" xmlns="http://www.w3.org/2000/svg" xmlns:xlink="http://www.w3.org/1999/xlink" x="0px" y="0px"
	 width="55.643px" height="43.537px" viewBox="0 0 55.643 43.537" style="enable-background:new 0 0 55.643 43.537;"
	 xml:space="preserve">
<path d="M16.567,15.68c0.556,0.646,1.365,1.122,2.369,1.429c-0.512-0.649-0.956-1.357-1.306-2.135
	c-1.287-2.845-0.942-5.553-0.032-7.729c-0.848,1.213-2.115,3.376-2.121,5.498C15.474,13.864,15.831,14.826,16.567,15.68z
	 M52.093,14.98c-0.181-0.623-3.638-3.304-3.638-3.304c-0.322-0.242-0.65-0.484-0.991-0.724c0.008,0.016,0.017,0.034,0.024,0.05
	l-13.41-9.334C29.02-1.878,22.496,1.331,22.496,1.331L9.101,11.452C3.514,14.984,0,18.128,0,23.886
	c0,10.854,12.456,19.651,27.821,19.651c15.365,0,27.821-8.798,27.821-19.651C55.643,20.4,54.35,17.529,52.093,14.98z M22.118,3.575
	l0.879-0.664c0,0,1.239-0.606,3.021-0.963l0.017,0.046c-0.69,0.436-1.163,1.097-1.234,1.725c-0.044,0.392,0.075,0.757,0.351,1.083
	c0.648,0.76,2.087,1.106,3.425,0.821c0.943-0.202,1.658-0.685,1.914-1.297c0.246-0.589,0.293-1.085,0.147-1.521
	C30.5,2.4,30.206,2.063,29.884,1.798c0.725,0.101,1.46,0.292,2.184,0.597c0.162,0.673,0.2,1.628-0.291,2.798
	c-0.48,1.148-1.531,1.947-2.958,2.252c-0.675,0.146-1.455,0.16-2.213,0.021c2.392,0.896,5.474,0.917,6.726-0.096
	c0.644-0.521,1.001-1.115,1.062-1.768c0.091-0.942-0.408-1.867-0.656-2.261l2.085,1.452c0.039,0.326,0.052,0.665,0.02,1.019
	c-0.115,1.23-0.695,2.277-1.728,3.114c-2.329,1.889-8.835,1.164-11.161-1.938C22.469,6.341,21.864,5.169,22.118,3.575z M14.81,9.097
	l6.372-4.812l0.169,0.309c-0.197,0.172-4.777,4.332-2.458,9.462c0.622,1.373,1.585,2.518,2.768,3.438
	c0.534,0.005,1.093-0.021,1.674-0.082c4.932-0.519,9.979-3.272,12.002-6.548c1.101-1.782,1.613-3.293,1.48-4.365
	C36.724,5.746,36.32,5.245,35.9,4.846l2.375,1.653c0.106,1.575-0.475,3.374-1.791,5.505c-2.468,3.998-7.748,6.404-12.011,7.108
	c4.394,1.829,10.06,1.536,13.602-0.893c2.007-1.377,3.126-3.089,3.325-5.084c0.197-2.001-0.58-4.093-1.562-5.547l2.544,1.77
	c0.394,1.231,0.602,2.601,0.463,4.007c-0.261,2.624-1.632,4.803-4.079,6.479c-4.699,3.223-12.523,3.043-17.486-0.513
	c-2.5-0.098-4.483-0.88-5.697-2.287c-1.044-1.212-1.569-2.662-1.564-4.314C14.023,11.453,14.356,10.208,14.81,9.097z M5.124,28.665
	c0.599,1.227,1.318,2.405,2.138,3.52C6.369,31.083,5.647,29.905,5.124,28.665z M41.902,31.149
	c-9.893,7.331-22.06,6.037-27.796,4.846c-0.953-0.681-1.851-1.438-2.685-2.256c2.277,0.379,9.862,1.371,17.425-0.713
	c-5.326-0.019-12.482-0.969-16.187-5.416c-2.821-3.388-3.756-6.9-3.916-9.777c-1.122,4.103-1.569,9.445,1.342,14.075l-0.182,0.184
	c-1.361-1.634-2.476-3.452-3.268-5.38c-0.724-4.879,0.604-9.665,1.865-12.848l2.55-1.929c-0.063,0.124-0.132,0.256-0.206,0.405
	l0.047,0.031c-0.118,0.291-2.812,7.197,2.768,13.895c4.89,5.872,17.118,4.997,20.68,4.604c0.558-0.296,1.111-0.609,1.65-0.954
	c10.154-6.487,11.029-13.634,8.102-19.367l4.487,3.126c0.451,1.196,0.95,2.611,1.408,4.021
	C50.001,21.493,48.338,26.38,41.902,31.149z"/>
<g>
</g>
<g>
</g>
<g>
</g>
<g>
</g>
<g>
</g>
<g>
</g>
<g>
</g>
<g>
</g>
<g>
</g>
<g>
</g>
<g>
</g>
<g>
</g>
<g>
</g>
<g>
</g>
<g>
</g>
</svg>
