<?xml version="1.0" encoding="iso-8859-1"?>
<!-- Generator: Adobe Illustrator 16.0.0, SVG Export Plug-In . SVG Version: 6.00 Build 0)  -->
<!DOCTYPE svg PUBLIC "-//W3C//DTD SVG 1.1//EN" "http://www.w3.org/Graphics/SVG/1.1/DTD/svg11.dtd">
<svg version="1.1" id="Capa_1" xmlns="http://www.w3.org/2000/svg" xmlns:xlink="http://www.w3.org/1999/xlink" x="0px" y="0px"
	 width="55.668px" height="40.179px" viewBox="0 0 55.668 40.179" style="enable-background:new 0 0 55.668 40.179;"
	 xml:space="preserve">
<path d="M33.567,33.005l0.852,1.279l1.95,0.062l-1.217-1.098L33.567,33.005z M19.248,33.491l2.742-0.12l0.245-1.036l-2.62,0.243
	L19.248,33.491z M24.013,33.53l-0.293,2.642l2.597-0.075l-0.184-2.543L24.013,33.53z M51.685,12.172
	c-2.011-1.701-5.028-1.315-6.5-1.469c-1.469-0.155-1.857-2.244-3.481-2.863c-1.625-0.62-3.714-6.811-5.337-7.661
	s-2.864,1.548-4.875,2.633c-2.012,1.083-6.346,10.367-6.577,10.676c-0.233,0.31-0.389,0.465-1.625,0.619
	c-1.238,0.155-2.554,1.856-3.404,2.785c-0.852,0.928-2.244-1.779-3.869-3.713c-1.625-1.936-1.314-1.936-4.023,0.465
	C9.751,15.629,7.399,21.97,6.66,24.087c-0.363,0.301-0.694,0.609-0.855,0.851c-0.464,0.697-0.309,0.851-1.625,1.395
	c-1.317,0.539-0.695,0.539-2.012,1.083c-1.317,0.539-1.934,0.696-1.934,1.238c0,0.54-0.234,1.081-0.234,1.081v10.444h55.668V14.514
	C54.471,14.044,53.012,13.296,51.685,12.172z M46.5,30.32l-2.614-0.149l0.149-1.569l2.318,0.15L46.5,30.32z M45.455,25.315
	l0.823,0.97h-2.915l-0.073-0.97H45.455z M42.021,23.524c0.74,0.463,1.33,0.847,1.33,0.847l-2.988-0.054l-0.2-1.349
	C40.162,22.969,41.283,23.063,42.021,23.524z M42.915,28.378v1.269L40.749,29.2l-0.524-1.047L42.915,28.378z M38.805,26.06
	l-0.148-0.819l2.987,0.075l0.225,0.744H38.805z M37.984,22.325l0.895,0.822h-1.717l-1.196-1.046
	C36.191,22.026,37.984,22.325,37.984,22.325z M24.757,21.055c0,0,2.542,0.075,3.587,0c1.045-0.075,2.243,0.523,2.243,0.523
	l-0.075,0.747L28.419,22.4l-1.869,0.821l-2.241-1.047C24.309,22.175,24.459,21.055,24.757,21.055z M40.085,38.956l-1.584-1.612
	l-2.609-0.075l1.087,1.688h-3.107l-2.256-3.555h-2.07l1.575,3.555H19.758l0.708-2.722l-1.462,0.183l-1.208,2.539H1.514v-4.702
	l7.328-4.231H5.854l0.635-0.637l4.446,0.038l0.299,1.867l-8.669,5.006l2.615,0.075l7.921-5.603l-0.746-0.674l0.673-0.299
	l1.271,0.299l1.568-0.374l0.746-0.97l-5.156-0.075l1.346-0.897l4.26-0.075l0.897-0.3l0.823,0.076l-0.077,0.822l-2.913,2.765
	l0.448,0.522l-1.495,0.749l-0.746-0.077l-5.456,4.857l1.122,0.597l-0.822,0.525l2.019-0.075l0.746-0.972l-0.824-0.449l0.451-1.494
	l1.269,0.075l2.094-2.391l2.391-0.148l0.971-1.645l3.362-0.523l1.345-2.616l0.897,0.225l-0.045,0.574l1.988,0.396l0.97,0.674
	l0.972-0.075l2.017,2.243h2.091l-0.97-1.049l0.224-0.372l1.345,0.896H33.5l1.044,0.824l1.347-0.077h1.122l0.596,0.897l1.195,0.298
	l6.285,5.499H40.085z M41.19,32.714l-3.885-2.547l-2.456-5.904l-2.686-2.097l0.746-0.075l3.434,2.472l1.938,4.11l3.285,2.246
	c0,0,5.454,0.308,5.678,0.381c0.225,0.075,0.521,1.573,0.521,1.573L41.19,32.714z M47.773,27.928l-1.047-1.195l1.419-0.374
	l0.972,0.672l0.448,1.272L47.773,27.928z"/>
<g>
</g>
<g>
</g>
<g>
</g>
<g>
</g>
<g>
</g>
<g>
</g>
<g>
</g>
<g>
</g>
<g>
</g>
<g>
</g>
<g>
</g>
<g>
</g>
<g>
</g>
<g>
</g>
<g>
</g>
</svg>
