<?xml version="1.0" encoding="iso-8859-1"?>
<!-- Generator: Adobe Illustrator 16.0.0, SVG Export Plug-In . SVG Version: 6.00 Build 0)  -->
<!DOCTYPE svg PUBLIC "-//W3C//DTD SVG 1.1//EN" "http://www.w3.org/Graphics/SVG/1.1/DTD/svg11.dtd">
<svg version="1.1" id="Capa_1" xmlns="http://www.w3.org/2000/svg" xmlns:xlink="http://www.w3.org/1999/xlink" x="0px" y="0px"
	 width="51.666px" height="42.711px" viewBox="0 0 51.666 42.711" style="enable-background:new 0 0 51.666 42.711;"
	 xml:space="preserve">
<path d="M47.255,39.35l2.764-3.031c0,0-7.88-1.424-10.669-15.797c-2.765-14.26-2.441-20.114-2.441-20.114h-3.909v5.206
	c-0.272,0.5-0.828,1.099-1.955,1.146c-0.779,0.032-1.274-0.313-1.587-0.738V0h-2.239v1.874h-2.77V0H22.21v6.021
	c-0.313,0.425-0.808,0.771-1.588,0.738c-1.125-0.048-1.683-0.646-1.957-1.146V0.407h-3.907c0,0,0.324,5.854-2.441,20.114
	C9.527,34.895,1.647,36.318,1.647,36.318l2.764,3.031H0v3.361h51.666V39.35H47.255z M37.313,32.421c1.313,0,1.254,1.252,1.254,1.252
	v5.677h-2.504v-5.677C36.063,33.673,36.002,32.421,37.313,32.421z M31.044,8.469c1.14-0.08,1.588,0.896,1.588,0.896
	s-0.203,0.771-1.345,1.06c-0.844,0.21-1.441-0.472-1.694-0.841C29.801,9.183,30.258,8.524,31.044,8.469z M29.457,12.523
	c0.377-0.438,0.892-0.813,1.546-0.798c0.886,0.025,1.572,0.888,1.996,1.624v5.421h-3.542V12.523z M24.448,4.805h2.77v1.547h-2.77
	V4.805z M27.218,8.673V39.35h-2.77V8.673H27.218z M20.622,8.469c0.786,0.056,1.243,0.714,1.452,1.115
	c-0.254,0.369-0.852,1.051-1.695,0.841c-1.142-0.288-1.345-1.06-1.345-1.06S19.48,8.389,20.622,8.469z M18.665,13.35
	c0.426-0.736,1.112-1.599,1.998-1.624c0.652-0.016,1.168,0.36,1.547,0.798v6.247h-3.545V13.35z M14.351,32.421
	c1.313,0,1.254,1.252,1.254,1.252v5.677h-2.507v-5.677C13.098,33.673,13.038,32.421,14.351,32.421z"/>
<g>
</g>
<g>
</g>
<g>
</g>
<g>
</g>
<g>
</g>
<g>
</g>
<g>
</g>
<g>
</g>
<g>
</g>
<g>
</g>
<g>
</g>
<g>
</g>
<g>
</g>
<g>
</g>
<g>
</g>
</svg>
