<?xml version="1.0" encoding="iso-8859-1"?>
<!-- Generator: Adobe Illustrator 16.0.0, SVG Export Plug-In . SVG Version: 6.00 Build 0)  -->
<!DOCTYPE svg PUBLIC "-//W3C//DTD SVG 1.1//EN" "http://www.w3.org/Graphics/SVG/1.1/DTD/svg11.dtd">
<svg version="1.1" id="Capa_1" xmlns="http://www.w3.org/2000/svg" xmlns:xlink="http://www.w3.org/1999/xlink" x="0px" y="0px"
	 width="55.642px" height="50.654px" viewBox="0 0 55.642 50.654" style="enable-background:new 0 0 55.642 50.654;"
	 xml:space="preserve">
<path d="M55.642,50.654l-0.472-6.875h-2.731v-1.785h-3.044l-0.786-6.771h-0.787v-0.839h-2.258v0.787h-0.788l-0.347,6.886h-1.427
	L42.415,43.4l-2.269-1.259L35.61,9.133l-2.908,0.038V7.349h-2.205V6.062c0.586-0.645,0.945-1.499,0.945-2.441
	c0-1.997-1.621-3.62-3.623-3.62c-2,0-3.623,1.623-3.623,3.62c0,0.942,0.361,1.797,0.948,2.441v1.287h-2.206v1.822l-2.907-0.038
	l-4.535,33.009l-2.27,1.259l-0.587-1.344h-1.43l-0.345-6.886h-0.788v-0.787H7.822v0.839H7.033l-0.786,6.771H3.2v1.785H0.472
	L0,50.654h25.581V45.53h4.479v5.124H55.642z M24.601,18.128h6.44V33.07h-6.44V18.128z M15.918,42.56h23.819l1.197,0.996
	l-0.577,0.365H15.636l-0.774-0.658L15.918,42.56z"/>
<g>
</g>
<g>
</g>
<g>
</g>
<g>
</g>
<g>
</g>
<g>
</g>
<g>
</g>
<g>
</g>
<g>
</g>
<g>
</g>
<g>
</g>
<g>
</g>
<g>
</g>
<g>
</g>
<g>
</g>
</svg>
