<?xml version="1.0" encoding="iso-8859-1"?>
<!-- Generator: Adobe Illustrator 16.0.0, SVG Export Plug-In . SVG Version: 6.00 Build 0)  -->
<!DOCTYPE svg PUBLIC "-//W3C//DTD SVG 1.1//EN" "http://www.w3.org/Graphics/SVG/1.1/DTD/svg11.dtd">
<svg version="1.1" id="Capa_1" xmlns="http://www.w3.org/2000/svg" xmlns:xlink="http://www.w3.org/1999/xlink" x="0px" y="0px"
	 width="55.792px" height="33.354px" viewBox="0 0 55.792 33.354" style="enable-background:new 0 0 55.792 33.354;"
	 xml:space="preserve">
<path d="M39.583,19.539c-0.222-0.038-0.55,0.038-0.846,0.221c-0.296,0.186-1.51,0.775-1.51,0.775
	c-0.333,0.223,0.701,0.406,1.069,0.447c0.37,0.034,0.479,0.476,0.626,0.515c0.148,0.037,0.295-0.372,0.295-0.372
	s0.405-0.109,0.553-0.143c0.147-0.041,0-0.447,0.033-0.74C39.843,19.946,39.803,19.577,39.583,19.539z M23.755,15.295
	c0,0,0.374,0.057,0.665,0.096c0.296,0.034,0.718,0.013,0.937,0.013c0.228,0,0.649-0.109,0.649-0.109s-0.406-0.109-0.774-0.109
	C24.865,15.186,24.049,15.11,23.755,15.295z M10.694,4.594c-0.22-0.332-0.998-0.7-1.733-0.921C8.224,3.45,7.007,3.784,7.007,3.784
	C6.525,3.71,6.968,4.411,7.34,4.447c0.365,0.038,0.401,0.333,0.477,0.48c0.073,0.147,0,0.481,0,0.74
	c0,0.258,0.481,0.332,0.737,0.258c0.261-0.076,0.333-0.111,0.85-0.147c0.252-0.02,0.476-0.081,0.641-0.14
	c0.366,0.013,0.763,0.014,0.853,0.014c0.214,0.086,0.498,0.088,0.498,0.088s-0.073-0.147-0.257-0.371
	C10.952,5.149,10.915,4.927,10.694,4.594z M26.479,14.558c-0.293-0.074-0.762-0.43-1.35-0.467c-0.591-0.038-1.29,0.157-1.767,0.305
	c-0.48,0.147-0.71,0.681-0.71,0.681s0.329,0,0.514-0.077c0.185-0.073,0.185-0.111,0.37-0.147c0.181-0.038,0.333-0.148,0.772-0.221
	c0.446-0.073,0.626-0.038,1.148,0.037c0.514,0.075,0.844,0.258,1.068,0.37c0.22,0.108,0.444,0.038,0.444,0.038
	S26.775,14.63,26.479,14.558z M49.807,12.787c-0.773-0.037-2.293,0.813-2.293,0.813c-0.215,0.182-0.03,0.699,0.191,0.921
	c0.22,0.223,0.475,0.959,0.666,1.033c0.179,0.073,0.403,0,0.735-0.039c0.331-0.036,0.22-0.257,0.405-0.331
	C49.696,15.11,50.026,15,50.288,15c0.258,0,0.737-0.073,0.81-0.22c0.433-0.02,0.565-0.069,0.616-0.153
	c0.002,0,0.008,0.003,0.008,0.005c0.05,0.033,0.039-0.022,0.025-0.088c0.005-0.048,0.005-0.104,0.015-0.17
	c0.109,0.034,0.37-0.11,0.37-0.11s-0.261-0.408-0.626-0.739C51.134,13.191,50.583,12.824,49.807,12.787z M27.629,10.463
	c-0.072-0.149-0.257-0.37-0.443-0.481c-0.183-0.11-0.399-0.295-0.737-0.369c-0.332-0.074-0.736-0.183-0.993-0.146
	c-0.261,0.036-0.224,0.072-0.224,0.369c0,0.203,0.137,0.505,0.224,0.676c0.015,0.076,0.029,0.151,0.051,0.229
	c0.12,0.447-0.041,0.61,0.364,0.569c0.014-0.002,0.035-0.006,0.048-0.007c0.17,0.021,0.396,0.046,0.53,0.046
	c0.224,0,0.108,0,0.443,0c0.333,0,0.259-0.038,0.48,0c0.22,0.038,0.59,0.257,0.59,0.257l0.076-0.22l-0.15-0.444
	C27.888,10.942,27.707,10.61,27.629,10.463z M54.521,6.955c-0.996-0.456-1.543,0.181-2.72,0.272
	c-1.182,0.089-2.086,0.089-4.266,0.271c-2.175,0.183-2.724,1.091-3.533,1.906c-0.823,0.816-0.091,4.627-0.091,4.627
	s-0.641,0-1.183,0c-0.545,0-1.087,0.724-1.452,0.724c-0.362,0-0.633-0.633-1.084-1.267c-0.458-0.636-0.817-1.091-1.728-1.181
	c-0.909-0.089-2.086-0.363-3.084-0.452c-0.998-0.09-2.086,0.452-2.629,0.726c-0.547,0.271-1,0.271-1.271,0
	c-0.272-0.273-1.087-2.541-1.272-3.176c-0.181-0.633-1.542-1.995-2.448-2.63c-0.907-0.635-2.629-1.089-3.538-0.818
	c-0.906,0.273-0.904-0.349-2.901,0c-1.432,0.25-3.45,1.999-3.45,1.999s-0.541-1.089-1.175-1.725
	c-0.636-0.635-0.726-2.27-1.725-3.356c-0.997-1.09-2.944-2.298-4.716-2.723C7.958-0.396,5.651,0.645,4.927,1.732
	C4.2,2.822,3.269,5.866,3.269,6.592c0,0.725-0.816,0.817-1.091,1.362c-0.271,0.542-0.542,3.989-0.45,4.897
	C1.791,13.476,0.693,14.227,0,14.637v18.717h55.792c0,0,0-25.22,0-25.493S55.518,7.409,54.521,6.955z M13.868,12.896
	c-0.372,0.077-0.555,0.333-0.776,0.295c-0.22-0.032-0.696-0.404-0.813-0.626c-0.109-0.221-0.847-0.665-0.847-0.665
	s-0.331,0.184-0.738,0.406c-0.404,0.223-0.998,0.444-1.733,0.295c-0.737-0.145-1.773-0.442-2.064-0.442
	c-0.296,0-1.146,0.297-1.366,0.333c-0.224,0.038-0.335-0.259-0.297-0.663c0.041-0.41,0.261-0.443,0.406-0.519
	c0.147-0.071,0.518-0.295,0.628-0.333c0.111-0.037,0.37-0.332,0.37-0.332S6.268,10.5,6.12,10.5c-0.148,0-0.664,0-0.775-0.073
	c-0.112-0.075,0.078-0.223,0.22-0.37c0.15-0.148,0.662-0.332,1.183-0.37c0.514-0.036,1.659-0.036,1.659-0.036
	S8.075,9.503,7.558,9.392C7.042,9.282,6.157,9.32,6.157,9.32L6.081,9.022c0,0,0.372-0.259,0.52-0.367
	c0.148-0.11,0.329-0.555,0.329-0.555L7.67,8.063c0,0,0.146-0.147,0.071-0.295C7.67,7.619,6.929,7.364,6.525,7.327
	C6.12,7.288,5.161,7.214,5.161,7.031c0-0.186,0.92-2.802,0.811-3.025C5.861,3.784,4.499,4.078,4.499,4.078S4.793,3.12,4.9,2.822
	C5.013,2.53,5.603,1.791,5.935,1.532c0.333-0.256,1.475-0.81,2.066-0.81c0.592,0,0.96-0.112,1.403,0.035
	c0.444,0.147,2.067,0.37,2.433,0.703c0.372,0.331,0.263,0.736,0.296,1.475c0.037,0.738,0.774,1.883,1.181,2.326
	c0,0.002,0,0.005,0.004,0.007c0.306,1.303,0.578,2.81,0.253,3.06c-0.59,0.453-1.407,0.861-1.043,1.405
	c0.362,0.545,1.588,1.406,1.724,2.086c0.041,0.207,0.04,0.449,0.023,0.694C14.164,12.708,14.035,12.864,13.868,12.896z
	 M29.476,13.709c-0.15,0.407-0.15,0.59-0.335,0.665c-0.181,0.073-0.589,0.073-0.626,0.515c-0.037,0.445-0.147,1.441-0.22,1.623
	c-0.074,0.186-0.666,0.777-0.997,0.886c-0.331,0.111-1.329-0.036-2.364-0.072c-1.029-0.037-1.92-0.185-2.432-0.073
	c-0.516,0.11-0.704,0.073-0.997-0.037c-0.297-0.113-1.401-0.333-1.664-1.477c-0.258-1.145-0.181-2.214-0.218-2.768
	c-0.04-0.552,0-0.886,0.112-1.181c0.106-0.293,0.334-0.441,0.334-0.441s0.697,0.222,1.325,0.294
	c0.452,0.055,0.669,0.012,0.757-0.017c0.456-0.009,0.955-0.132,1.304-0.282c0.001,0.07,0.004,0.139,0.004,0.188
	c0,0.258,0.076,0.553,0,0.813c-0.074,0.257-0.074,0.737-0.074,0.737s0.261,0.333,0.626,0.333c0.374,0,0.889,0.148,1.183,0.075
	c0.297-0.075,0.331-0.15,0.479-0.15c0.149,0,0.22,0.038,0.332-0.11c0.111-0.147,0.276-0.333,0.129-0.628
	c-0.148-0.295-0.383-0.459-0.57-0.792c-0.185-0.332-0.297-0.461-0.631-0.423c-0.326,0.034-0.405,0.148-0.514,0.111
	c-0.113-0.04-0.408-0.666-0.408-1.146s-0.107-0.796-0.296-0.945c-0.181-0.146-0.995-0.074-1.547-0.036
	c-0.55,0.036-0.812-0.235-1.218-0.088c-0.405,0.148-0.588,0.295-0.701,0.369c-0.107,0.074-0.146-0.407,0.113-0.592
	c0.254-0.185,1.29-1.252,1.399-1.325c0.113-0.074,0.37-0.74,0.703-0.851s1.474-0.11,1.842-0.038c0,0,0.854,0.148,1.329,0.704
	c0.48,0.552,1.777,1.439,2.141,1.695c0.368,0.259,0.518,0.703,0.552,1.035c0.038,0.332,0.372,1.327,0.372,1.327
	s0.295,0.627,0.479,0.592c0.181-0.038,0.257,0.073,0.296,0.182C29.515,12.492,29.624,13.306,29.476,13.709z M32.87,15.077
	c0.187-0.261,0.628-1.181,0.996-1.221c0,0,1.699,0.075,2.105-0.182c0.403-0.259,1.218-0.629,1.218-0.629s1.178,1.106,1.51,1.292
	c0.333,0.185,1.403,0.332,1.514,0.516s0.518,0.812,0.625,0.997c0.111,0.184,0.444,0.923,0.59,1.291
	c0.15,0.368,0.226,1.071,0.226,1.071s-0.56-0.627-1.112-0.886c-0.55-0.258-0.808-0.369-1.031-0.481
	c-0.222-0.108-0.258-0.147-0.479-0.108c-0.22,0.036-0.405,0.072-0.481-0.113c-0.071-0.183-0.698-0.183-0.959-0.112
	c-0.259,0.077-0.699,0.112-0.994,0.077c-0.296-0.038-0.778-0.038-1.403,0.073c-0.626,0.111-0.922,0.183-1.255,0.369
	c-0.331,0.185-0.589,0.332-0.589,0.332s0.218-0.851-0.074-1.144c-0.297-0.297-0.553-0.331-0.631-0.591
	C32.576,15.372,32.687,15.334,32.87,15.077z M41.256,22.109c-0.243,0.284-0.527,0.163-1.216-0.122
	c-0.691-0.284-1.097-0.203-2.67-0.234c-1.57-0.032-1.798,0.355-2.029,0.479c-0.119,0.062-0.119,0.195-0.091,0.312
	c-0.021,0.08-0.044,0.15-0.055,0.242c-0.037,0.295,0.109,0.519,0.331,0.738c0,0,0.185-0.036,0.368-0.148
	c0.182-0.109,0.149-0.109,0.295-0.332c0.147-0.219,0.185-0.073,0.704-0.331c0.117-0.061,0.405-0.112,0.628-0.073
	c0.218,0.035,0.405,0,0.625,0c0.221,0,0.405,0.035,0.553,0.146c0.147,0.109,1.104,0.074,1.181,0.295
	c0.072,0.224-0.146,0.443-0.146,0.443s-0.481-0.036-0.778-0.111c-0.292-0.073-0.737-0.073-1.14-0.073
	c-0.41,0-0.883,0.184-0.883,0.184s0.55,0.147,1.031,0.147c0.476,0,0.848,0.074,1.325,0.112c0.48,0.036,0.591,0.293,0.848,0.774
	c0.259,0.481,0.076,0.922-0.22,0.993c-0.296,0.077-1.07-0.217-1.659-0.291c-0.59-0.075-1.515,0.036-1.991,0.036
	c-0.484,0-1.331-0.551-1.442-1.145c-0.111-0.59-0.516-0.626-0.516-0.626s-1.292-1.071-1.701-1.549
	c-0.405-0.479-1.292-2.029-1.292-2.29c0-0.257,0.561-1.401,0.778-1.732c0.222-0.333,0.481-0.369,0.592-0.258
	c0.107,0.109,0.514,0.368,0.514,0.368s0.035,0.222,0.22,0.333c0.188,0.112,0.261,0.147,0.56,0.073c0,0,0.904-0.298,1.553-0.135
	c0.648,0.162,1.3,0.487,1.827-0.244c0.525-0.731,0.889-0.69,1.175-0.568c0.124,0.052,0.313,0.238,0.491,0.427
	c0.089,0.248,0.195,0.507,0.263,0.63c0.149,0.259,0.369,0.224,0.741,0.26c0.366,0.038,0.512,0.221,0.588,0.406
	c0.074,0.184,0.37,0.441,0.739,0.811c0.251,0.255,0.411,0.66,0.454,1.013C41.628,21.466,41.393,21.95,41.256,22.109z M53.974,18.912
	c-0.332,0.333-1.29,2.324-1.29,2.324s-0.111-0.774-0.409-0.774c-0.294,0-0.474,0.334-0.474,0.629s-0.222,0.922-0.187,1.18
	c0.033,0.257,0.072,0.555-0.185,0.774c-0.257,0.223-0.257,0.48-0.479,0.37c-0.22-0.109-0.336-0.406-0.405-0.146
	c-0.078,0.257-0.332,0.294-0.332,0.294s-0.37-0.256-0.518,0c-0.148,0.258-0.442,0.369-0.59,0.295
	c-0.148-0.072-0.148-0.037-0.37-0.072c-0.222-0.038-0.405,0-0.366-0.112c0.031-0.111,0.179-0.701,0-0.553
	c-0.191,0.148-0.333,0.332-0.374,0.186c-0.038-0.149-0.292-0.37-0.292-0.37s-0.076-0.443,0.107-0.555
	c0.185-0.11-0.036-0.367,0.296-0.553c0.333-0.184,0.481-0.406,0.735-0.736c0.263-0.333,0.296-0.333,0.52-0.482
	c0.22-0.146,0.631-0.477,0.631-0.477s-1.15,0.182-1.517,0.295c-0.369,0.108-0.772,0.478-1.033,0.332
	c-0.256-0.15,0.631-0.959,1.514-1.035c0.742-0.062,1.583-0.044,1.774-0.04c-0.222-0.021-1.085-0.28-1.774-0.248
	c-0.739,0.034-1.444,0.363-1.444,0.363s-0.215-0.554,0.115-0.812c0.331-0.259,0.409-0.333,0.626-0.591
	c0.222-0.259,0.446-0.295,0.557-0.481c0.018-0.029,0.028-0.064,0.043-0.096c0.166-0.062,0.405-0.132,0.625-0.104
	c0.36,0.045,1.676,0.634,1.676,0.634s-0.59-0.77-1.224-0.998c-0.245-0.087-0.425-0.106-0.576-0.097
	c-0.033-0.009-0.069-0.032-0.102-0.038c-0.665-0.148-0.479,0.257-0.883,0.293c-0.411,0.039-0.887,0.039-1.33,0.039
	c-0.445,0-0.815,0.147-0.815-0.185c0-0.332,0.226-1.365,0.519-1.991c0.296-0.627,0.403-0.813,0.512-0.961
	c0.113-0.146-0.07-0.183-0.216-0.331c-0.147-0.148-0.076-0.334-0.333-0.295c-0.256,0.034-0.553,0.111-0.924,0.258
	c-0.372,0.147-0.923,0.701-0.778,0.184c0,0,0.632-1.847,0.887-2.289c0.263-0.441,1.847-1.66,2.326-1.917
	c0.482-0.259,2.659-0.223,3.25,0.036c0.587,0.256,0.996,0.995,0.883,1.549c-0.109,0.553,0,1.553,0.405,1.995
	c0.408,0.442,0.961,0.59,0.996,0.921c0.042,0.332,0.407,2.14,0.557,2.471C54.455,17.326,54.31,18.581,53.974,18.912z"/>
<g>
</g>
<g>
</g>
<g>
</g>
<g>
</g>
<g>
</g>
<g>
</g>
<g>
</g>
<g>
</g>
<g>
</g>
<g>
</g>
<g>
</g>
<g>
</g>
<g>
</g>
<g>
</g>
<g>
</g>
</svg>
