<?xml version="1.0" encoding="iso-8859-1"?>
<!-- Generator: Adobe Illustrator 16.0.0, SVG Export Plug-In . SVG Version: 6.00 Build 0)  -->
<!DOCTYPE svg PUBLIC "-//W3C//DTD SVG 1.1//EN" "http://www.w3.org/Graphics/SVG/1.1/DTD/svg11.dtd">
<svg version="1.1" id="Capa_1" xmlns="http://www.w3.org/2000/svg" xmlns:xlink="http://www.w3.org/1999/xlink" x="0px" y="0px"
	 width="54.693px" height="37.539px" viewBox="0 0 54.693 37.539" style="enable-background:new 0 0 54.693 37.539;"
	 xml:space="preserve">
<path d="M53.492,34.065h-1.971v-2.004h-1.136v-13.56h1.136v-1.469h1.002v-1.135h-1.002v-1.471h-6.847V12.09h0.367v-1.07h-2.705
	v-0.904h0.659V8.583h-1.285V7.009h-1.981c-2.101-3.905-6.615-6.655-11.925-6.95V0c-0.156,0-0.303,0.025-0.457,0.029
	C27.192,0.025,27.044,0,26.89,0v0.059c-5.311,0.295-9.825,3.045-11.926,6.95h-1.981v1.574h-1.285v1.532h0.66v0.904H9.653v1.07h0.367
	v2.338H3.173v1.471H2.172v1.135h1.001v1.469h1.135v13.56H3.173v2.004h-1.97L0,37.539h54.693L53.492,34.065z M7.916,32.062H6.313
	v-13.56h1.603V32.062z M11.855,32.062H9.919v-13.56h1.936V32.062z M17.157,32.062h-3.076V18.436h3.076V32.062z M22.458,32.062
	h-3.076V18.436h3.076V32.062z M30.013,32.062h-5.331V18.436h5.331V32.062z M35.313,32.062h-3.077V18.436h3.077V32.062z
	 M40.612,32.062h-3.075V18.436h3.075V32.062z M44.775,32.062h-1.937v-13.56h1.937V32.062z M48.382,32.062h-1.604v-13.56h1.604
	V32.062z"/>
<g>
</g>
<g>
</g>
<g>
</g>
<g>
</g>
<g>
</g>
<g>
</g>
<g>
</g>
<g>
</g>
<g>
</g>
<g>
</g>
<g>
</g>
<g>
</g>
<g>
</g>
<g>
</g>
<g>
</g>
</svg>
