<?xml version="1.0" encoding="iso-8859-1"?>
<!-- Generator: Adobe Illustrator 16.0.0, SVG Export Plug-In . SVG Version: 6.00 Build 0)  -->
<!DOCTYPE svg PUBLIC "-//W3C//DTD SVG 1.1//EN" "http://www.w3.org/Graphics/SVG/1.1/DTD/svg11.dtd">
<svg version="1.1" id="Capa_1" xmlns="http://www.w3.org/2000/svg" xmlns:xlink="http://www.w3.org/1999/xlink" x="0px" y="0px"
	 width="55.642px" height="42.908px" viewBox="0 0 55.642 42.908" style="enable-background:new 0 0 55.642 42.908;"
	 xml:space="preserve">
<path d="M53.353,39.663l-0.875-4.705V11.354L50.857,0l-1.542,11.354v23.604l-0.875,4.705h-1.771l-0.645-0.583l-0.558-3.005V16.637
	L44.13,7.285l-1.268,9.352v13.171l-13.265-4.583l-0.486-3.893l-0.974,1.216l-0.213-2.919h-0.114l-0.214,2.919l-0.974-1.216
	l-0.486,3.893L12.779,29.84V16.637l-1.27-9.352l-1.336,9.352v19.438l-0.578,3.109l-0.532,0.479H7.2l-0.875-4.705V11.354L4.784,0
	L3.162,11.354v23.604l-0.875,4.705H0v3.245h55.642v-3.245H53.353z M5.226,35.77H4.264V12.247h0.962V35.77z M11.874,32.988
	l-0.515,0.695V17.371h0.515V32.988z M12.954,37.021L25.65,26.199L13.115,37.885L12.954,37.021z M14.403,39.663l0.459-0.362v0.362
	H14.403z M16.932,39.663v-1.999l1.905-1.507v3.506H16.932z M20.905,39.663v-5.142l1.907-1.508v6.649H20.905z M24.88,39.663v-8.285
	l1.905-1.508v9.793H24.88z M28.854,39.663v-9.866l1.906,1.508v8.358H28.854z M32.828,39.663v-6.725l1.907,1.509v5.216H32.828z
	 M36.803,39.663v-3.58l1.906,1.507v2.073H36.803z M40.779,39.663v-0.437l0.553,0.437H40.779z M42.54,37.81l-12.455-11.61
	l12.615,10.75L42.54,37.81z M44.19,33.591l-0.422-0.938V17.371h0.422V33.591z M51.379,35.77h-0.964V12.247h0.964V35.77z"/>
<g>
</g>
<g>
</g>
<g>
</g>
<g>
</g>
<g>
</g>
<g>
</g>
<g>
</g>
<g>
</g>
<g>
</g>
<g>
</g>
<g>
</g>
<g>
</g>
<g>
</g>
<g>
</g>
<g>
</g>
</svg>
