<?xml version="1.0" encoding="utf-8"?>
<!-- Generator: Adobe Illustrator 16.0.4, SVG Export Plug-In . SVG Version: 6.00 Build 0)  -->
<!DOCTYPE svg PUBLIC "-//W3C//DTD SVG 1.1//EN" "http://www.w3.org/Graphics/SVG/1.1/DTD/svg11.dtd">
<svg version="1.1" id="Capa_1" xmlns="http://www.w3.org/2000/svg" xmlns:xlink="http://www.w3.org/1999/xlink" x="0px" y="0px"
	 width="55.668px" height="58.834px" viewBox="0 0 55.668 58.834" enable-background="new 0 0 55.668 58.834" xml:space="preserve">
<path d="M54.229,40.973l-0.619-23.675l0.812-1.69h-4.506l0.925,1.667l-0.28,12.913H46.7v-2.505c0,0,1.153-0.889,1.153-2.626
	c0-2.314-3.021-3.865-3.621-4.15v-0.652h-0.342V21c-0.287,0.176-0.789,0.495-1.214,0.839v-7.755H12.989v7.755
	c-0.425-0.344-0.924-0.663-1.212-0.839v-0.745h-0.342v0.652c-0.604,0.285-3.623,1.836-3.623,4.15c0,1.737,1.156,2.626,1.156,2.626
	v2.505h-3.86L4.826,17.272l0.925-1.666H1.248l0.812,1.69L1.439,40.973H0v3.778h55.668v-3.778H54.229z M11.101,40.973h-2.27v-5.091
	c0,0,0.49-1.012,1.136-1.012c0.644,0,1.134,1.012,1.134,1.012V40.973z M35.605,40.973H20.062V27.736
	c0-3.432,7.773-6.651,7.773-6.651s7.771,2.938,7.771,6.651V40.973L35.605,40.973z M46.838,40.973h-2.271v-5.091
	c0,0,0.492-1.012,1.136-1.012c0.646,0,1.137,1.012,1.137,1.012L46.838,40.973L46.838,40.973z"/>
</svg>
