<?xml version="1.0" encoding="iso-8859-1"?>
<!-- Generator: Adobe Illustrator 16.0.0, SVG Export Plug-In . SVG Version: 6.00 Build 0)  -->
<!DOCTYPE svg PUBLIC "-//W3C//DTD SVG 1.1//EN" "http://www.w3.org/Graphics/SVG/1.1/DTD/svg11.dtd">
<svg version="1.1" id="Capa_1" xmlns="http://www.w3.org/2000/svg" xmlns:xlink="http://www.w3.org/1999/xlink" x="0px" y="0px"
	 width="43.793px" height="51.83px" viewBox="0 0 43.793 51.83" style="enable-background:new 0 0 43.793 51.83;"
	 xml:space="preserve">
<path d="M43.395,25.716c0.497-4.27,0.684-6.437-0.369-7.486c-1.052-1.054-2.353-0.806-3.281-0.248
	c-0.928,0.556-2.411,0.433-2.411,0.433s-1.3-0.93-3.157-1.608c-1.854-0.681-5.629-0.558-5.629-0.558l-0.87,0.061
	c0,0-1.732-2.289-1.855-2.846c-0.122-0.557,0.186-1.299,0.682-2.04c0.493-0.744,0.866-1.239,1.051-2.91
	c0.186-1.671-0.122-2.291-0.806-2.537c-0.681-0.247-1.422-0.433-1.546-0.928c-0.123-0.495-0.123-0.93,0-1.919
	c0.124-0.99-0.556-1.547-0.556-1.547s0-0.371-0.063-1.052c-0.062-0.682-0.619-0.558-0.494-0.433
	c0.124,0.123-0.311,1.234-0.311,1.234s-1.485,0.125-2.104,0.188s-0.68,1.175-0.68,1.175s0.085,0.491,0.216,0.941
	c-0.079,0.355-0.178,0.801-0.229,1.044c-0.039,0.177,0.061,0.232,0.432,0.194c0.016,0.335,0.047,0.671,0.199,0.915
	c0.311,0.495,1.24,0.249,1.24,0.249l-0.188,0.433c0,0-0.68,0.062-1.236,0.188c-0.557,0.121-1.362-0.125-2.353-0.25
	c-0.989-0.124-2.844-1.3-3.526-1.423c-0.682-0.125-1.67-0.125-2.413-0.062s-1.795,0.186-1.979,0.433
	c-0.186,0.25,1.422,0.434,1.422,0.434s0.123,0.433,0.619,0.433c0.495,0,0.989,0.249,0.989,0.249s0.233-0.283,0.799-0.208
	c0.685,0.095,2.273,1.401,3.511,1.834c1.238,0.435,2.375,0.972,2.375,0.972l0.124,2.538c0,0-0.557,0-0.867,0.123
	c-0.31,0.124-0.866,0.063-1.113,0.188c-0.248,0.123-0.619,0.616-0.434,0.988c0.186,0.371,0.865,0.496,0.865,0.496l0.93,0.122
	l0.123,0.435l0.123,0.929c0,0-0.246,0.37-0.865,0.308c-0.62-0.061-1.484-0.433-2.166-1.732c-0.68-1.299-1.856-3.218-5.94-3.899
	c-4.085-0.679-5.94,3.281-5.94,3.281l-1.363-0.062l0.868,0.928c0,0,0,0.805,0.186,1.425c0.184,0.62,1.112,0.99,1.793,2.412
	c0.682,1.423,0.372,3.156,0.372,3.466c0,0.309,1.115,0.558,1.732,0.62c0.62,0.061,1.177-0.867,1.177-0.867s-0.311,0.805-0.311,1.36
	c0,0.558,0.063,1.796-0.617,1.919c-0.682,0.123-2.537-0.061-3.652-0.246c-1.113-0.187-1.608,0.929-1.608,0.929
	s-2.104,2.783-2.784,5.135c-0.682,2.352-0.249,3.095-0.249,3.095s0.743-0.371,1.053-0.496c0.31-0.123,0.743-0.805,0.805-1.362
	c0.063-0.556-0.248-1.236-0.248-1.236l1.981-3.466c0,0,0.557-0.371,1.051-0.309c0.496,0.061,1.237,0.246,3.467,1.236
	c2.227,0.99,2.97,0.805,2.97,0.805s-0.062,0.248-0.681,1.301c-0.619,1.051-1.051,1.856-2.537,4.27
	c-1.485,2.412-2.041,3.156-3.156,4.332c-0.598,0.633-1.322,1.369-1.863,1.918H2.409L1.098,43.66H0v3.468h1.049v4.702h38.983v-4.702
	h0.985V43.66h-1.034l-1.312-3.711H22.756c0.271-0.458,0.586-0.955,0.713-1.051c0.248-0.188,0.992-0.312,1.549-0.867
	c0.557-0.558,4.394-3.279,5.074-3.899c0.68-0.618,0.371-1.485,0.371-3.156s1.176-3.465,1.176-3.465s0.494,0.741,1.547,1.547
	c1.053,0.805,2.971,1.918,3.342,2.351c0.37,0.435-2.413,2.661-3.528,4.209c-1.113,1.547,0.374,4.208,0.374,4.208
	s0.617-0.246,1.358-0.866c0.744-0.619,0.683-0.805,0.249-1.237c-0.435-0.433-0.435-1.178-0.188-1.856
	c0.25-0.681,3.095-3.342,3.773-4.148c0.684-0.804,0.065-1.297-0.679-1.731c-0.743-0.433-1.731-1.733-1.917-2.475
	c-0.188-0.742,0.864-2.041,1.608-3.898c0.742-1.856,0.371-3.96,0.371-3.96s0.866-0.248,1.363,0.246
	c0.494,0.495,1.05,1.3,1.113,4.951c0.06,3.65-0.683,9.654-0.683,9.654S42.902,29.985,43.395,25.716z M7.883,20.563
	c0,0,0.083-1.365-0.04-2.235c-0.125-0.87-1.078-2.194-1.782-2.816c-0.703-0.622-0.457-1.533-0.457-1.533
	c0.084,0.33,0.457,0.995,0.788,1.284c0.331,0.292,1.409,1.283,1.739,2.609C8.463,19.198,7.883,20.563,7.883,20.563z M21.966,11.576
	c0.456-0.084,1.076-0.082,1.076-0.082s0.456-1.201,0.912-1.615c0.456-0.415,0.703-0.912,0.703-1.408
	c0-0.499,0.871-1.491,0.871-1.491s-0.579,1.406-0.621,1.821c-0.042,0.416-0.373,0.911-0.789,1.326
	c-0.414,0.414-0.536,1.408-0.62,1.572c-0.083,0.165-0.414,0.166-0.871,0.166c-0.455,0-1.779,0.083-1.779,0.083
	S21.509,11.658,21.966,11.576z M27.615,33.327c-0.432,0.618-4.826,4.146-5.631,4.95c-0.438,0.437-1.092,1.13-1.6,1.672H6.95
	l0.146-0.247c0,0,0.455-1.081,0.89-1.701c0.434-0.618,1.019-1.141,1.698-1.821c0.681-0.681,1.188-1.936,2.609-3.977
	c1.424-2.043,3.256-3.454,3.256-3.454s1.299-0.064,1.796-0.249c0.493-0.186,0.433-0.802,1.112-0.989c0.68-0.187,1.053,0,3.959,0
	c2.91,0,5.016-1.362,5.016-1.362s-0.125,1.051,0,2.291c0.122,1.237,0.617,2.164,0.617,3.277
	C28.049,32.832,28.049,32.709,27.615,33.327z M31.366,26.281c-1.327-2.113-0.247-5.634-0.247-5.634s-0.166,2.486,0.247,4.308
	c0.414,1.822,3.396,4.639,3.396,4.639S32.692,28.394,31.366,26.281z"/>
<g>
</g>
<g>
</g>
<g>
</g>
<g>
</g>
<g>
</g>
<g>
</g>
<g>
</g>
<g>
</g>
<g>
</g>
<g>
</g>
<g>
</g>
<g>
</g>
<g>
</g>
<g>
</g>
<g>
</g>
</svg>
