<?xml version="1.0" encoding="utf-8"?>
<!-- Generator: Adobe Illustrator 16.0.4, SVG Export Plug-In . SVG Version: 6.00 Build 0)  -->
<!DOCTYPE svg PUBLIC "-//W3C//DTD SVG 1.1//EN" "http://www.w3.org/Graphics/SVG/1.1/DTD/svg11.dtd">
<svg version="1.1" id="Capa_1" xmlns="http://www.w3.org/2000/svg" xmlns:xlink="http://www.w3.org/1999/xlink" x="0px" y="0px"
	 width="55.792px" height="50.85px" viewBox="0 0 55.792 50.85" enable-background="new 0 0 55.792 50.85" xml:space="preserve">
<path d="M52.569,30.476l3.222-3.354c0,0-2.381-1.339-5.987-0.658c-3.609,0.676-5.324,3.125-5.324,3.125l-2.244-1.541l2.897-5.424
	c0,0-2.801-0.597-6.365-0.468c-3.562,0.125-7.171,2.674-7.171,2.674s-1.062-2.973-5.9-7.004c-4.832-4.028-10.65-4.751-10.65-4.751
	c1.146,1.995,3.33,9.852,3.33,9.852s-1.57-1.938-4.303-3.274c-2.191-1.073-5.433-1.358-5.433-1.358l1.647,6.58
	c0,0-1.127-1.845-4.199-2.845c-2.2-0.717-5.598-0.042-5.598-0.042l3.608,7.469L0,30.751v0.061l0.659,0.426v1.781H0v4.756h54.521
	v-5.127l-1.869-1.025L52.569,30.476z M5.327,30.687l-4.202-8.212l1.567-0.067l4.253,8.424L5.327,30.687z M12.259,32.136
	c0,0-0.516-2.857-1.176-6.01c-0.657-3.149-1.977-7.33-1.977-7.33l0.66,0.149c0,0,1.481,2.346,2.454,6.314
	c0.884,3.594,1.028,6.375,1.028,6.375L12.259,32.136z M20.805,32.249c0,0-0.78-4.729-1.806-9.126
	c-1.031-4.398-2.93-9.162-2.93-9.162l1.249,0.294c0,0,2.226,3.682,3.399,8.664c1.173,4.983,1.368,10.399,1.368,10.399L20.805,32.249
	z M38.208,32.241l5.229-9.439l1.115,0.056l-4.973,9.403L38.208,32.241z M39.958,32.38l1.221-2.221l0.826,2.35L39.958,32.38z
	 M48.74,33.868l-1.283-0.191c0,0,2.474-2.5,4.06-4.025c1.596-1.529,3.005-2.662,3.005-2.662l0.938,0.197
	c0,0-2.422,2.354-3.692,3.564C50.487,31.958,48.74,33.868,48.74,33.868z"/>
</svg>
