<?xml version="1.0" encoding="utf-8"?>
<!-- Generator: Adobe Illustrator 16.0.4, SVG Export Plug-In . SVG Version: 6.00 Build 0)  -->
<!DOCTYPE svg PUBLIC "-//W3C//DTD SVG 1.1//EN" "http://www.w3.org/Graphics/SVG/1.1/DTD/svg11.dtd">
<svg version="1.1" id="Capa_1" xmlns="http://www.w3.org/2000/svg" xmlns:xlink="http://www.w3.org/1999/xlink" x="0px" y="0px"
	 width="55.668px" height="53.41px" viewBox="0 0 55.668 53.41" enable-background="new 0 0 55.668 53.41" xml:space="preserve">
<path d="M51.639,35.115V32.82l0.918-1.232l0.07-0.579h-4.102V28.71l0.918-1.23l0.072-0.58h-5.022v-2.295l0.92-1.233l0.069-0.583
	h-4.668v-2.294l0.918-1.232l0.072-0.581h-5.164v-2.293l0.92-1.234l0.068-0.58h-3.466v-0.778h-12.66v0.777h-3.466l0.069,0.58
	l0.92,1.234v2.293h-5.163l0.071,0.581l0.918,1.232v2.293h-4.668l0.07,0.583l0.92,1.233v2.295h-5.02l0.07,0.58l0.921,1.23v2.297
	H3.043l0.069,0.579l0.92,1.231v2.295H0l0.072,0.58l0.918,1.234v2.688h53.688v-2.688l0.922-1.234l0.068-0.578h-4.029V35.115z
	 M47.463,29.929v1.119h-8.701v-1.119H47.463z M43.786,25.828v1.117h-5.729v-1.117H43.786z M36.925,21.653h3.04v1.119h-3.04V21.653z
	 M18.674,35.15H4.741v-1.119h13.933V35.15z M18.674,31.048H7.993v-1.119h10.681V31.048z M19.523,26.945h-7.781v-1.117h7.781V26.945z
	 M19.947,22.773h-4.738v-1.12h4.738V22.773z M22.565,36.713v2.405h-2.547l0.143-2.192l1.697-20.938l1.768,0.071L22.565,36.713z
	 M36.288,39.119v-2.405l-3.043-20.653l1.769-0.071l3.68,20.938l0.144,2.191H36.288z M51.213,35.15H39.825v-1.119h11.388V35.15z"/>
</svg>
