<?xml version="1.0" encoding="iso-8859-1"?>
<!-- Generator: Adobe Illustrator 16.0.0, SVG Export Plug-In . SVG Version: 6.00 Build 0)  -->
<!DOCTYPE svg PUBLIC "-//W3C//DTD SVG 1.1//EN" "http://www.w3.org/Graphics/SVG/1.1/DTD/svg11.dtd">
<svg version="1.1" id="Capa_1" xmlns="http://www.w3.org/2000/svg" xmlns:xlink="http://www.w3.org/1999/xlink" x="0px" y="0px"
	 width="31.758px" height="55.668px" viewBox="0 0 31.758 55.668" style="enable-background:new 0 0 31.758 55.668;"
	 xml:space="preserve">
<path d="M24.787,20.06c-0.544,0-0.987,0.442-0.987,0.986c0,0.545,0.442,0.986,0.987,0.986c0.545,0,0.986-0.441,0.986-0.986
	C25.773,20.502,25.332,20.06,24.787,20.06z M30.325,52.855V23.812h-0.648V4.846H29.48c0.041-0.247,0.052-0.501-0.056-0.594
	c-0.229-0.198-0.229-0.395-0.229-0.594c0-0.196-0.114-0.89-0.114-0.89l-0.268-0.295l-0.229-2.173L28.316,0h-0.071L27.98,0.301
	l-0.23,2.173l-0.267,0.295c0,0-0.115,0.693-0.115,0.89c0,0.199,0,0.396-0.229,0.594c-0.107,0.091-0.096,0.347-0.056,0.594h-4.589
	c0.039-0.247,0.05-0.501-0.057-0.594c-0.23-0.198-0.23-0.395-0.23-0.594c0-0.196-0.114-0.89-0.114-0.89l-0.268-0.295l-0.229-2.173
	L21.329,0h-0.072l-0.265,0.301l-0.23,2.173l-0.267,0.295c0,0-0.114,0.693-0.114,0.89c0,0.199,0,0.396-0.23,0.594
	c-0.106,0.091-0.096,0.347-0.056,0.594h-0.195v17.361h-0.263l-3.757-5.472v-1.397h0.716v-0.316h-0.716v-0.685h-0.315v0.685h-0.716
	v0.316h0.716v1.397l-3.758,5.472h-0.281V4.846h-0.195c0.042-0.247,0.053-0.501-0.056-0.594c-0.229-0.198-0.229-0.395-0.229-0.594
	c0-0.196-0.115-0.89-0.115-0.89l-0.268-0.295l-0.23-2.173L10.167,0h-0.071L9.829,0.301L9.599,2.474L9.332,2.769
	c0,0-0.113,0.693-0.113,0.89c0,0.199,0,0.396-0.229,0.594C8.879,4.343,8.891,4.599,8.932,4.846H4.34
	c0.041-0.247,0.052-0.501-0.056-0.594C4.056,4.054,4.056,3.857,4.056,3.658c0-0.196-0.115-0.89-0.115-0.89L3.674,2.474l-0.23-2.173
	L3.179,0H3.105L2.84,0.301L2.611,2.474L2.343,2.769c0,0-0.114,0.693-0.114,0.89c0,0.199,0,0.396-0.229,0.594
	C1.891,4.343,1.902,4.599,1.943,4.846H1.746v18.967H1.234v29.043H0v2.812h31.758v-2.812H30.325z M8.071,31.747H4.86v-2.409
	c0,0,0.536-1.828,1.606-1.828c1.071,0,1.604,1.828,1.604,1.828V31.747z M6.636,23.403c-1.301,0-2.355-1.055-2.355-2.357
	c0-1.301,1.055-2.355,2.355-2.355c1.302,0,2.356,1.055,2.356,2.355C8.992,22.349,7.938,23.403,6.636,23.403z M13.15,41.246h-0.808
	V31.164c0,0,0.27-0.827,0.808-1.676V41.246z M14.039,28.403c0.361-0.327,0.781-0.583,1.26-0.683v13.525h-1.26V28.403z M17.09,53.398
	h-2.965v-4.2c0,0,0.494-1.519,1.48-1.519c0.989,0,1.484,1.519,1.484,1.519V53.398z M17.445,41.246h-1.258V27.721
	c0.478,0.1,0.898,0.355,1.258,0.683V41.246z M19.144,41.246h-0.807V29.488c0.536,0.849,0.807,1.676,0.807,1.676V41.246z
	 M26.796,31.747h-3.21v-2.409c0,0,0.536-1.828,1.606-1.828c1.07,0,1.604,1.828,1.604,1.828V31.747z M24.787,23.403
	c-1.302,0-2.356-1.055-2.356-2.357c0-1.301,1.054-2.355,2.356-2.355c1.301,0,2.357,1.055,2.357,2.355
	C27.144,22.349,26.088,23.403,24.787,23.403z"/>
<g>
</g>
<g>
</g>
<g>
</g>
<g>
</g>
<g>
</g>
<g>
</g>
<g>
</g>
<g>
</g>
<g>
</g>
<g>
</g>
<g>
</g>
<g>
</g>
<g>
</g>
<g>
</g>
<g>
</g>
</svg>
