<?xml version="1.0" encoding="iso-8859-1"?>
<!-- Generator: Adobe Illustrator 16.0.0, SVG Export Plug-In . SVG Version: 6.00 Build 0)  -->
<!DOCTYPE svg PUBLIC "-//W3C//DTD SVG 1.1//EN" "http://www.w3.org/Graphics/SVG/1.1/DTD/svg11.dtd">
<svg version="1.1" id="Capa_1" xmlns="http://www.w3.org/2000/svg" xmlns:xlink="http://www.w3.org/1999/xlink" x="0px" y="0px"
	 width="33.942px" height="55.668px" viewBox="0 0 33.942 55.668" style="enable-background:new 0 0 33.942 55.668;"
	 xml:space="preserve">
<path d="M26.089,13.89v-3.746h0.144V6.84h-2.347v2.252h-1.696V6.84h-2.347v2.252h-1.698V6.84h-0.648V0h-0.635v6.84h-1.064v2.252
	H14.1V6.84h-2.346v2.252h-1.696V6.84H7.714v3.304h0.14v3.746H0v4.556h0.901v37.223h32.141V18.445h0.9V13.89H26.089z M26.905,16.428
	h1.85v1.848h-1.85V16.428z M26.541,27.021v2.742h-2.295v-2.742H26.541z M23.802,16.428h1.849v1.848h-1.849V16.428z M20.699,16.428
	h1.851v1.848h-1.851V16.428z M17.599,16.428h1.852v1.848h-1.852V16.428z M17.138,27.245v2.224h-2.445v-2.224H17.138z M14.493,16.428
	h1.852v1.848h-1.852V16.428z M11.39,16.428h1.854v1.848H11.39V16.428z M10.547,20.878h1.999v2.664h-1.999V20.878z M8.293,16.428
	h1.848v1.848H8.293V16.428z M5.188,16.428h1.853v1.848H5.188V16.428z M2.086,16.428h1.852v1.848H2.086V16.428z M8.493,43.998H6.036
	v-3.914h2.457V43.998z M31.157,35.168H2.12v-0.82h29.037V35.168z M31.857,18.275h-1.853v-1.848h1.853V18.275z"/>
<g>
</g>
<g>
</g>
<g>
</g>
<g>
</g>
<g>
</g>
<g>
</g>
<g>
</g>
<g>
</g>
<g>
</g>
<g>
</g>
<g>
</g>
<g>
</g>
<g>
</g>
<g>
</g>
<g>
</g>
</svg>
