<?xml version="1.0" encoding="UTF-8" standalone="no"?>
<svg
   xmlns:dc="http://purl.org/dc/elements/1.1/"
   xmlns:cc="http://creativecommons.org/ns#"
   xmlns:rdf="http://www.w3.org/1999/02/22-rdf-syntax-ns#"
   xmlns:svg="http://www.w3.org/2000/svg"
   xmlns="http://www.w3.org/2000/svg"
   xmlns:xlink="http://www.w3.org/1999/xlink"
   xmlns:sodipodi="http://sodipodi.sourceforge.net/DTD/sodipodi-0.dtd"
   xmlns:inkscape="http://www.inkscape.org/namespaces/inkscape"
   id="Layer_1"
   xml:space="preserve"
   height="510.34"
   viewBox="0 0 510.342 510.34786"
   width="510.34"
   version="1.0"
   inkscape:version="0.48.4 r9939"
   sodipodi:docname="bat.svg"><defs
     id="defs75"><linearGradient
       inkscape:collect="always"
       xlink:href="#path3224_2_"
       id="linearGradient3122"
       gradientUnits="userSpaceOnUse"
       gradientTransform="matrix(-1.6004,0.7821,0.7488,1.5323,1470.4,-1.5165)"
       x1="666.28003"
       y1="-178.48"
       x2="666.28003"
       y2="-182.92999" /><linearGradient
       inkscape:collect="always"
       xlink:href="#path3220_3_"
       id="linearGradient3124"
       gradientUnits="userSpaceOnUse"
       gradientTransform="matrix(-1.6004,0.7821,0.7488,1.5323,1501.4,-16.665)"
       x1="675.21002"
       y1="-178.48"
       x2="675.21002"
       y2="-182.92999" /><linearGradient
       inkscape:collect="always"
       xlink:href="#path3222_2_"
       id="linearGradient3126"
       gradientUnits="userSpaceOnUse"
       gradientTransform="matrix(-1.6004,0.7821,0.7488,1.5323,1486.2,-9.2001)"
       x1="670.81"
       y1="-179.94"
       x2="670.81"
       y2="-185.23" /><linearGradient
       inkscape:collect="always"
       xlink:href="#path3224_4_"
       id="linearGradient3128"
       gradientUnits="userSpaceOnUse"
       gradientTransform="matrix(1.6004,0.7821,-0.7488,1.5323,-582.46,-1.5165)"
       x1="475.79999"
       y1="-81.261002"
       x2="475.79999"
       y2="-85.708" /><linearGradient
       inkscape:collect="always"
       xlink:href="#path3220_4_"
       id="linearGradient3130"
       gradientUnits="userSpaceOnUse"
       gradientTransform="matrix(1.6004,0.7821,-0.7488,1.5323,-613.46,-16.665)"
       x1="484.73001"
       y1="-81.260002"
       x2="484.73001"
       y2="-85.708" /><linearGradient
       inkscape:collect="always"
       xlink:href="#path3222_4_"
       id="linearGradient3132"
       gradientUnits="userSpaceOnUse"
       gradientTransform="matrix(1.6004,0.7821,-0.7488,1.5323,-598.18,-9.2001)"
       x1="480.32999"
       y1="-82.720001"
       x2="480.32999"
       y2="-88.003998" /></defs><sodipodi:namedview
     pagecolor="#ffffff"
     bordercolor="#666666"
     borderopacity="1"
     objecttolerance="10"
     gridtolerance="10"
     guidetolerance="10"
     inkscape:pageopacity="0"
     inkscape:pageshadow="2"
     inkscape:window-width="1865"
     inkscape:window-height="1056"
     id="namedview73"
     showgrid="false"
     inkscape:zoom="0.57216758"
     inkscape:cx="255.17"
     inkscape:cy="129.89"
     inkscape:window-x="55"
     inkscape:window-y="24"
     inkscape:window-maximized="1"
     inkscape:current-layer="Layer_1" /><g
     id="g3052"
     transform="translate(-9.0284957e-5,-125.00139)"><g
       transform="translate(0,250.56386)"
       id="g236"><path
         style="fill:#333333;stroke:#000000;stroke-width:2.60170007;stroke-linecap:round;stroke-linejoin:round"
         inkscape:connector-curvature="0"
         d="m 299.13,153.22 c 0,38.81 -14.89,104.96 -43.96,104.96 -29.07,0 -43.96,-66.15 -43.96,-104.96 0,-38.81 14.89,-70.271 43.96,-70.271 29.07,0 43.96,31.461 43.96,70.271 z"
         id="path238" /><path
         style="fill-opacity:0.3137"
         inkscape:connector-curvature="0"
         d="m 294.83,127.9 c 0.67,4.3 1.02,8.74 1.02,13.28 0,37.54 -15.04,102.68 -44.27,102.68 -21.91,0 -27.06,-25.81 -35.1,-50.21 3.66,30.98 12.58,63.29 38.23,63.29 29.23,0 44.27,-65.14 44.27,-102.68 0,-9.34 -1.48,-18.25 -4.15,-26.36 z"
         id="path3293_4_" /></g><g
       transform="translate(0,250.56386)"
       style="stroke:#000000;stroke-width:2.6249001;stroke-linecap:round;stroke-linejoin:round"
       id="g241"><g
         id="g243"><linearGradient
           y2="-182.92999"
           x2="666.28003"
           gradientTransform="matrix(-1.6004,0.7821,0.7488,1.5323,1470.4,-1.5165)"
           y1="-178.48"
           gradientUnits="userSpaceOnUse"
           x1="666.28003"
           id="path3224_2_"><stop
             offset="0"
             stop-color="#fab044"
             id="stop246" /><stop
             offset="1"
             stop-color="#c67729"
             id="stop248" /></linearGradient><path
           style="fill:url(#linearGradient3122)"
           inkscape:connector-curvature="0"
           d="m 263.95,250.2 c -3.01,-6.16 -2.36,-12.66 1.45,-14.52 3.81,-1.86 9.33,1.62 12.34,7.77 3.01,6.16 2.36,12.66 -1.45,14.52 -3.81,1.86 -9.34,-1.62 -12.34,-7.77 z"
           id="path3224_3_" /><linearGradient
           y2="-182.92999"
           x2="675.21002"
           gradientTransform="matrix(-1.6004,0.7821,0.7488,1.5323,1501.4,-16.665)"
           y1="-178.48"
           gradientUnits="userSpaceOnUse"
           x1="675.21002"
           id="path3220_3_"><stop
             offset="0"
             stop-color="#fab044"
             id="stop252" /><stop
             offset="1"
             stop-color="#c67729"
             id="stop254" /></linearGradient><path
           style="fill:url(#linearGradient3124)"
           inkscape:connector-curvature="0"
           d="m 280.65,242.04 c -3.01,-6.16 -2.36,-12.66 1.45,-14.52 3.81,-1.86 9.33,1.62 12.34,7.77 3.01,6.16 2.36,12.66 -1.45,14.52 -3.81,1.86 -9.34,-1.62 -12.34,-7.77 z"
           id="path3220_2_" /><linearGradient
           y2="-185.23"
           x2="670.81"
           gradientTransform="matrix(-1.6004,0.7821,0.7488,1.5323,1486.2,-9.2001)"
           y1="-179.94"
           gradientUnits="userSpaceOnUse"
           x1="670.81"
           id="path3222_2_"><stop
             offset="0"
             stop-color="#fab044"
             id="stop258" /><stop
             offset="1"
             stop-color="#c67729"
             id="stop260" /></linearGradient><path
           style="fill:url(#linearGradient3126)"
           inkscape:connector-curvature="0"
           d="m 271.39,243.96 c -3.57,-7.31 -3.38,-14.75 0.43,-16.61 3.81,-1.86 9.79,2.56 13.37,9.87 3.57,7.31 3.38,14.75 -0.43,16.61 -3.81,1.86 -9.79,-2.56 -13.37,-9.87 z"
           id="path3222_3_" /></g><g
         id="g263"><linearGradient
           y2="-85.708"
           x2="475.79999"
           gradientTransform="matrix(1.6004,0.7821,-0.7488,1.5323,-582.46,-1.5165)"
           y1="-81.261002"
           gradientUnits="userSpaceOnUse"
           x1="475.79999"
           id="path3224_4_"><stop
             offset="0"
             stop-color="#fab044"
             id="stop266" /><stop
             offset="1"
             stop-color="#c67729"
             id="stop268" /></linearGradient><path
           style="fill:url(#linearGradient3128)"
           inkscape:connector-curvature="0"
           d="m 246.4,250.2 c 3,-6.16 2.35,-12.66 -1.46,-14.52 -3.8,-1.86 -9.33,1.62 -12.34,7.77 -3.01,6.16 -2.36,12.66 1.45,14.52 3.81,1.86 9.34,-1.62 12.35,-7.77 z"
           id="path3224_1_" /><linearGradient
           y2="-85.708"
           x2="484.73001"
           gradientTransform="matrix(1.6004,0.7821,-0.7488,1.5323,-613.46,-16.665)"
           y1="-81.260002"
           gradientUnits="userSpaceOnUse"
           x1="484.73001"
           id="path3220_4_"><stop
             offset="0"
             stop-color="#fab044"
             id="stop272" /><stop
             offset="1"
             stop-color="#c67729"
             id="stop274" /></linearGradient><path
           style="fill:url(#linearGradient3130)"
           inkscape:connector-curvature="0"
           d="m 229.7,242.04 c 3,-6.16 2.35,-12.66 -1.46,-14.52 -3.8,-1.86 -9.33,1.62 -12.34,7.77 -3.01,6.16 -2.36,12.66 1.45,14.52 3.81,1.86 9.34,-1.62 12.35,-7.77 z"
           id="path3220_1_" /><linearGradient
           y2="-88.003998"
           x2="480.32999"
           gradientTransform="matrix(1.6004,0.7821,-0.7488,1.5323,-598.18,-9.2001)"
           y1="-82.720001"
           gradientUnits="userSpaceOnUse"
           x1="480.32999"
           id="path3222_4_"><stop
             offset="0"
             stop-color="#fab044"
             id="stop278" /><stop
             offset="1"
             stop-color="#c67729"
             id="stop280" /></linearGradient><path
           style="fill:url(#linearGradient3132)"
           inkscape:connector-curvature="0"
           d="m 238.95,243.96 c 3.57,-7.31 3.38,-14.75 -0.43,-16.61 -3.81,-1.86 -9.79,2.56 -13.37,9.87 -3.57,7.31 -3.38,14.75 0.43,16.61 3.81,1.86 9.8,-2.56 13.37,-9.87 z"
           id="path3222_1_" /></g></g><g
       transform="translate(0,250.56386)"
       id="g283"><g
         id="g285"><g
           id="g287"><path
             style="fill:#333333;stroke:#000000;stroke-width:3;stroke-linecap:round;stroke-linejoin:round"
             inkscape:connector-curvature="0"
             d="m 289.82,190.8 c 28.39,-17.48 63.35,-13.65 63.35,-13.65 37.86,-28.69 74.57,0 74.57,0 35,-41.31 80.32,0 80.32,0 C 521.25,95.113 363.49,68.72 363.49,68.72 333.16,123.71 278.5,105.44 278.5,105.44"
             id="path289" /></g><g
           style="fill:#333333;stroke:#000000;stroke-width:3;stroke-linecap:round;stroke-linejoin:round"
           id="g291"><path
             inkscape:connector-curvature="0"
             d="m 427.54,174.04 c 0,0 21.8,-47.78 -62.23,-103.54"
             id="path293" /><path
             inkscape:connector-curvature="0"
             d="m 352.78,174.75 c 0,0 26.04,-50.09 12.21,-104.18"
             id="path295" /></g></g><g
         id="g297"><g
           id="g299"><path
             style="fill:#333333;stroke:#000000;stroke-width:3;stroke-linecap:round;stroke-linejoin:round"
             inkscape:connector-curvature="0"
             d="m 220.52,190.8 c -28.39,-17.48 -63.35,-13.65 -63.35,-13.65 -37.86,-28.69 -74.573,0 -74.573,0 -34.994,-41.31 -80.313,0 -80.313,0 -13.195,-82.037 144.57,-108.43 144.57,-108.43 30.33,54.99 84.99,36.72 84.99,36.72"
             id="path301" /></g><g
           style="fill:#333333;stroke:#000000;stroke-width:3;stroke-linecap:round;stroke-linejoin:round"
           id="g303"><path
             inkscape:connector-curvature="0"
             d="m 82.804,174.04 c 0,0 -21.801,-47.78 62.226,-103.54"
             id="path305" /><path
             inkscape:connector-curvature="0"
             d="m 157.56,174.75 c 0,0 -26.04,-50.09 -12.2,-104.18"
             id="path307" /></g></g></g><path
       style="fill-opacity:0.3137"
       inkscape:connector-curvature="0"
       d="m 284.24,342.15986 c 0,0 -13.69,12.144 -30.08,12.144 -12.54,0 -19.46,-4.977 -27.13,-11.131 0,0 9.89,14.791 28.92,14.791 21.65,0 28.29,-15.804 28.29,-15.804 z"
       id="path3293_3_" /><g
       transform="translate(0,250.56386)"
       id="g310"><g
         id="g312"><path
           style="fill:#333333;stroke:#000000;stroke-width:3;stroke-linecap:round;stroke-linejoin:round"
           inkscape:connector-curvature="0"
           d="m 304.46,1.5 c -13.92,2.347 -26.39,17.749 -29.76,22.223 -5.82,-3.05 -12.44,-4.785 -19.46,-4.785 -7.06,0 -13.72,1.753 -19.56,4.836 -3.31,-4.405 -15.82,-19.918 -29.8,-22.274 0,0 -11.36,52.004 7.42,61.295 0.98,22.316 19.38,40.105 41.94,40.105 22.58,0 40.99,-17.826 41.94,-40.176 C 315.76,53.246 304.46,1.5 304.46,1.5 z"
           id="path314" /><path
           style="fill-opacity:0.3137"
           inkscape:connector-curvature="0"
           d="m 295.98,62.765 c 0,0 -7.35,33.15 -42.94,33.15 -17.07,0 -31.73,-9.15 -37.99,-22.189 3.78,16.627 20.45,29.174 40.43,29.174 22.77,0 41.24,-16.273 41.24,-36.329 0,-4.995 -0.74,-3.806 -0.74,-3.806 z"
           id="path3293_1_" /></g><g
         id="g317"><g
           id="g319"><path
             style="fill:#f1aac2"
             inkscape:connector-curvature="0"
             d="m 287.95,41.426 c -3.83,-7.167 -9.65,-11.778 -9.65,-11.778 0,0 9.17,-13.247 19.62,-15.007 10.45,-1.76 6.62,34.886 -6.64,39.61 0,-10e-4 0.05,-6.499 -3.33,-12.825 z"
             id="path321" /><path
             inkscape:connector-curvature="0"
             d="m 291.27,54.612 c -0.2,-0.559 0.09,-1.172 0.65,-1.371 2.66,-0.946 4.42,-3.319 5.56,-6.706 1.13,-3.364 1.55,-7.631 1.54,-11.914 0,-4.925 -0.54,-9.877 -1.08,-13.588 -0.33,-2.277 -0.65,-4.079 -0.86,-5.132 -6.91,1.67 -13.5,8.744 -16.35,12.322 -1.01,1.244 -1.55,2.033 -1.55,2.035 -0.34,0.486 -1.01,0.608 -1.49,0.271 -0.49,-0.337 -0.61,-1.006 -0.27,-1.493 0.1,-0.047 9.17,-13.475 20.32,-15.454 0.56,-0.095 1.1,0.269 1.23,0.828 0,0.041 2.19,10.057 2.2,20.211 -0.01,4.422 -0.41,8.871 -1.65,12.593 -1.23,3.704 -3.37,6.792 -6.88,8.045 -0.12,0.042 -0.24,0.063 -0.36,0.063 -0.44,0 -0.85,-0.273 -1.01,-0.71 z"
             id="path323" /></g><g
           id="g325"><path
             style="fill:#f1aac2"
             inkscape:connector-curvature="0"
             d="m 222.61,41.426 c 3.83,-7.167 9.65,-11.778 9.65,-11.778 0,0 -9.18,-13.247 -19.62,-15.007 -10.44,-1.76 -6.62,34.886 6.64,39.61 0,-10e-4 -0.06,-6.499 3.33,-12.825 z"
             id="path327" /><path
             inkscape:connector-curvature="0"
             d="m 219.29,54.612 c 0.2,-0.559 -0.09,-1.172 -0.65,-1.371 -2.66,-0.946 -4.43,-3.319 -5.57,-6.706 -1.12,-3.364 -1.54,-7.631 -1.54,-11.914 0,-4.925 0.54,-9.877 1.08,-13.588 0.33,-2.277 0.66,-4.079 0.87,-5.132 6.91,1.67 13.5,8.744 16.35,12.322 1,1.244 1.55,2.033 1.55,2.035 0.34,0.486 1,0.608 1.49,0.271 0.49,-0.337 0.61,-1.006 0.27,-1.493 -0.1,-0.047 -9.17,-13.475 -20.32,-15.454 -0.57,-0.095 -1.11,0.269 -1.23,0.828 -0.01,0.041 -2.2,10.057 -2.2,20.211 0,4.422 0.41,8.871 1.65,12.593 1.23,3.704 3.37,6.792 6.88,8.045 0.11,0.042 0.24,0.063 0.36,0.063 0.44,0 0.85,-0.273 1.01,-0.71 z"
             id="path329" /></g></g><g
         id="g331"><g
           style="fill:#ffffff;stroke:#000000;stroke-width:2.83189988;stroke-linejoin:round;display:none"
           display="none"
           id="g333"><path
             style="display:inline"
             inkscape:connector-curvature="0"
             d="m 259.52,38.191 c 3.79,-9.183 10.18,-10.427 10.18,-10.427 0,0 -3.56,4.79 -0.33,3.458 4.98,-2.063 20.84,4.403 20.84,4.403 0,0 -21.01,-4.89 -30.69,2.566 z"
             display="inline"
             id="path3283_1_" /><path
             style="display:inline"
             inkscape:connector-curvature="0"
             d="m 250.82,37.334 c -3.78,-9.183 -10.18,-10.426 -10.18,-10.426 0,0 3.56,4.79 0.34,3.458 -4.99,-2.063 -20.85,4.402 -20.85,4.402 0,0 21.01,-4.89 30.69,2.566 z"
             display="inline"
             id="path3285_1_" /></g><g
           id="g337"><path
             style="fill:#ffffff;stroke:#000000;stroke-width:2.83189988;stroke-linecap:round"
             inkscape:connector-curvature="0"
             d="m 242.72,35.045 c -8.92,0 -16.16,8.375 -16.16,18.696 0,10.319 7.24,18.695 16.16,18.695 5.24,0 9.89,-2.895 12.84,-7.375 2.96,4.483 7.62,7.375 12.86,7.375 8.92,0 16.17,-8.376 16.17,-18.695 0,-10.321 -7.25,-18.696 -16.17,-18.696 -5.24,0 -9.9,2.894 -12.86,7.376 -2.95,-4.479 -7.6,-7.376 -12.84,-7.376 z"
             id="path2387_1_" /><g
             id="g340"><path
               style="stroke:#000000;stroke-width:1.79499996;stroke-linecap:round"
               inkscape:connector-curvature="0"
               d="m 254.54,55.006 c 0,2.584 -2.09,4.679 -4.68,4.679 -2.58,0 -4.68,-2.095 -4.68,-4.679 0,-2.585 2.1,-4.68 4.68,-4.68 2.59,10e-4 4.68,2.095 4.68,4.68 z"
               id="path2411_1_" /><path
               style="fill:#ffffff"
               inkscape:connector-curvature="0"
               d="m 249.39,53.367 c 0,0.67 -0.55,1.213 -1.21,1.213 -0.68,0 -1.22,-0.543 -1.22,-1.213 0,-0.67 0.54,-1.214 1.22,-1.214 0.66,0 1.21,0.544 1.21,1.214 z"
               id="path3341_1_" /></g><g
             id="g344"><path
               style="stroke:#000000;stroke-width:1.79499996;stroke-linecap:round"
               inkscape:connector-curvature="0"
               d="m 266.39,55.006 c 0,2.584 -2.09,4.679 -4.67,4.679 -2.59,0 -4.68,-2.095 -4.68,-4.679 0,-2.585 2.09,-4.68 4.68,-4.68 2.58,10e-4 4.67,2.095 4.67,4.68 z"
               id="path3301_1_" /><path
               style="fill:#ffffff"
               inkscape:connector-curvature="0"
               d="m 261.24,53.367 c 0,0.67 -0.54,1.213 -1.21,1.213 -0.67,0 -1.22,-0.543 -1.22,-1.213 0,-0.67 0.55,-1.214 1.22,-1.214 0.67,0 1.21,0.544 1.21,1.214 z"
               id="path3343_1_" /></g></g></g></g><path
       style="fill-opacity:0.3137"
       inkscape:connector-curvature="0"
       d="m 364.59,318.85486 c 49.46,29.218 135.96,50.049 144.1,108.27 0,0 3.72,-12.54 -2.39,-28.55 -22.72,-59.501 -141.71,-79.719 -141.71,-79.719 z"
       id="path3293_5_" /></g><metadata
     id="metadata71"><rdf:RDF><cc:Work><dc:format>image/svg+xml</dc:format><dc:type
           rdf:resource="http://purl.org/dc/dcmitype/StillImage" /><cc:license
           rdf:resource="http://creativecommons.org/licenses/publicdomain/" /><dc:publisher><cc:Agent
             rdf:about="http://openclipart.org/"><dc:title>Openclipart</dc:title></cc:Agent></dc:publisher></cc:Work><cc:License
         rdf:about="http://creativecommons.org/licenses/publicdomain/"><cc:permits
           rdf:resource="http://creativecommons.org/ns#Reproduction" /><cc:permits
           rdf:resource="http://creativecommons.org/ns#Distribution" /><cc:permits
           rdf:resource="http://creativecommons.org/ns#DerivativeWorks" /></cc:License></rdf:RDF></metadata></svg>