<?xml version="1.0" encoding="UTF-8" standalone="no"?>
<svg
   xmlns:dc="http://purl.org/dc/elements/1.1/"
   xmlns:cc="http://creativecommons.org/ns#"
   xmlns:rdf="http://www.w3.org/1999/02/22-rdf-syntax-ns#"
   xmlns:svg="http://www.w3.org/2000/svg"
   xmlns="http://www.w3.org/2000/svg"
   xmlns:xlink="http://www.w3.org/1999/xlink"
   xmlns:sodipodi="http://sodipodi.sourceforge.net/DTD/sodipodi-0.dtd"
   xmlns:inkscape="http://www.inkscape.org/namespaces/inkscape"
   id="svg2"
   viewBox="0 0 266.97 266.97"
   version="1.0"
   inkscape:version="0.48.4 r9939"
   width="100%"
   height="100%"
   sodipodi:docname="bee.svg">
  <sodipodi:namedview
     pagecolor="#ffffff"
     bordercolor="#666666"
     borderopacity="1"
     objecttolerance="10"
     gridtolerance="10"
     guidetolerance="10"
     inkscape:pageopacity="0"
     inkscape:pageshadow="2"
     inkscape:window-width="1227"
     inkscape:window-height="658"
     id="namedview38"
     showgrid="false"
     inkscape:zoom="0.88399446"
     inkscape:cx="120"
     inkscape:cy="133.485"
     inkscape:window-x="55"
     inkscape:window-y="24"
     inkscape:window-maximized="0"
     inkscape:current-layer="svg2" />
  <defs
     id="defs4">
    <linearGradient
       id="SVGID_1_"
       y2="142.69"
       gradientUnits="userSpaceOnUse"
       y1="142.69"
       x2="370.51999"
       x1="255">
      <stop
         id="stop7073"
         stop-color="#afe0ed"
         offset=".092" />
      <stop
         id="stop7075"
         stop-color="#e6d0e5"
         offset="1" />
    </linearGradient>
    <linearGradient
       id="linearGradient8069"
       y2="142.69"
       xlink:href="#SVGID_1_"
       gradientUnits="userSpaceOnUse"
       x2="370.51999"
       gradientTransform="translate(-106.88,-27.672)"
       y1="138.53"
       x1="257.97" />
    <linearGradient
       id="linearGradient8072"
       y2="142.69"
       xlink:href="#SVGID_1_"
       gradientUnits="userSpaceOnUse"
       x2="370.51999"
       gradientTransform="translate(-10.104,-27.34)"
       y1="138.53"
       x1="257.97" />
    <linearGradient
       id="linearGradient8078"
       y2="142.69"
       xlink:href="#SVGID_1_"
       gradientUnits="userSpaceOnUse"
       x2="370.51999"
       gradientTransform="matrix(-1,0,0,1,446.26,-26.746)"
       y1="138.53"
       x1="257.97" />
    <linearGradient
       id="linearGradient8080"
       y2="142.69"
       xlink:href="#SVGID_1_"
       gradientUnits="userSpaceOnUse"
       x2="370.51999"
       gradientTransform="matrix(-1,0,0,1,348.64,-27.078)"
       y1="138.53"
       x1="257.97" />
  </defs>
  <g
     id="g8082"
     transform="translate(11.663379,0)">
    <path
       id="path8064"
       d="m 236.55,96.617 c 3.46,12.033 2.41,26.013 -5.55,36.093 -7.04,9.17 -18.79,15.05 -30.45,13.45 -11.46,-0.82 -23.83,-2.17 -33.12,-9.61 -5.15,-4.09 -7.58,-10.59 -7.92,-16.99 -0.93,-8.74 -3.7,-17.64 -1.54,-26.383 1.97,-7.394 9.73,-10.803 16.6,-12.188 12.42,-2.208 25.23,-3.247 37.78,-1.517 8.88,1.305 18.64,4.873 22.82,13.453 0.58,1.181 1.03,2.421 1.38,3.692 z"
       inkscape:connector-curvature="0"
       style="fill:url(#linearGradient8069);stroke:#000000;stroke-width:4" />
    <path
       id="path8076"
       d="m 5.212,97.211 c -3.465,12.029 -2.4109,26.009 5.544,36.099 7.039,9.16 18.787,15.04 30.453,13.44 11.454,-0.82 23.83,-2.16 33.117,-9.61 5.151,-4.09 7.579,-10.58 7.922,-16.99 0.934,-8.73 3.697,-17.63 1.539,-26.378 C 81.814,86.378 74.054,82.969 67.184,81.583 54.763,79.376 41.954,78.336 29.404,80.066 20.526,81.372 10.766,84.94 6.59,93.519 6.0112,94.701 5.554,95.941 5.212,97.211 z"
       inkscape:connector-curvature="0"
       style="fill:url(#linearGradient8080);stroke:#000000;stroke-width:4" />
    <g
       id="Left_x5F_Wing"
       transform="translate(-97.201,-45.507)"
       style="stroke:#000000;stroke-width:4">
      <path
         id="path7077"
         d="m 334.51,89.816 c -6.42,17.394 -24.21,30.504 -43.01,29.514 -12.5,0.58 -24.46,4.99 -36.93,5.91 -6.18,0.42 -13.75,0.54 -17.93,-4.85 -2.95,-4.64 -2.41,-10.53 -2.18,-15.77 0.54,-7.754 5.52,-14.746 12.49,-18.084 12.45,-6.244 26.68,-6.707 40.2,-8.746 12.54,-1.378 25.31,-3.242 37.89,-1.28 4.47,0.732 10.25,2.983 10.44,8.293 0.07,1.719 -0.36,3.419 -0.97,5.013 z"
         inkscape:connector-curvature="0"
         style="fill:url(#linearGradient8072)" />
      <path
         id="path8074"
         d="m 101.65,90.41 c 6.42,17.39 24.21,30.5 43.02,29.52 12.49,0.58 24.45,4.98 36.92,5.91 6.18,0.41 13.75,0.54 17.93,-4.86 2.95,-4.64 2.41,-10.52 2.18,-15.77 -0.54,-7.75 -5.52,-14.742 -12.49,-18.079 -12.45,-6.245 -26.68,-6.707 -40.2,-8.747 -12.54,-1.378 -25.31,-3.242 -37.89,-1.28 -4.47,0.732 -10.25,2.983 -10.44,8.293 -0.07,1.72 0.36,3.419 0.97,5.013 z"
         inkscape:connector-curvature="0"
         style="fill:url(#linearGradient8078)" />
    </g>
    <path
       id="path7957"
       d="m 182.59,225.11 c 43.91,-15.57 46.7,-20.51 48.75,-24.37 1.74,-3.27 -15.23,5.8 -26.06,2.1 -10.44,-3.57 -11.51,-4.09 -16.39,-10.93"
       inkscape:connector-curvature="0"
       style="fill:#4a4a4a;fill-rule:evenodd;stroke:#000000;stroke-width:4;stroke-linecap:square" />
    <path
       id="path7955"
       d="m 203.21,250.96 c 0,-2.52 -11.34,-26.06 -11.34,-26.06 l 0.42,-0.42"
       inkscape:connector-curvature="0"
       style="fill:none;stroke:#000000;stroke-width:6" />
    <path
       id="path7953"
       d="m 39.306,248.86 c 0,-2.53 11.347,-26.06 11.347,-26.06 l -0.42,-0.42"
       inkscape:connector-curvature="0"
       style="fill:none;stroke:#000000;stroke-width:6" />
    <path
       id="path2383"
       d="m 231.77,146.23 c 0.02,60.5 -49.03,109.56 -109.54,109.56 C 61.727,255.79 12.68,206.73 12.7,146.23 12.68,85.717 61.727,36.66 122.23,36.66 182.74,36.656 231.79,85.717 231.77,146.23 z"
       inkscape:connector-curvature="0"
       style="fill:#f3c31c;stroke:#000000;stroke-width:4;stroke-linecap:round;stroke-linejoin:round" />
    <path
       id="path3221"
       d="m 225.15,108.65 c 0.08,1.68 -0.29,19.36 -0.29,21.06 0,60.47 -48.65,93.56 -109.12,93.56 -47.258,0 -87.587,-30 -102.93,-71.97 2.65,58.12 50.67,104.47 109.43,104.47 60.47,0 109.54,-49.07 109.54,-109.53 0,-13.2 -2.34,-25.87 -6.63,-37.59 z"
       inkscape:connector-curvature="0" />
    <path
       id="path3236"
       d="m 221.16,106.32 c 5.88,35.93 -46.72,97.22 -102.43,96.97 -43.792,-0.2 -104.11,-47.59 -98.649,-91.09 5.63,-44.819 26.738,74.2 100.33,72.83 73.19,-1.36 92.35,-131.87 100.75,-78.71 z"
       inkscape:connector-curvature="0" />
    <path
       id="path3155"
       d="M 40.386,97.744 C 41.035,142.91 75.92,175.57 121.39,175.81 167.44,176.05 206.35,142 204.07,97.744 198.54,-9.686 39.12,8.992 40.39,97.744 z"
       inkscape:connector-curvature="0"
       style="fill:#ffcd01;stroke:#000000;stroke-width:4;stroke-linecap:round;stroke-linejoin:round" />
    <path
       id="path3157"
       d="m 118.61,85.757 c 0,12.519 -10.15,22.673 -22.667,22.673 -12.519,0 -22.666,-10.154 -22.663,-22.673 -0.003,-12.519 10.144,-22.669 22.663,-22.669 12.517,0 22.667,10.15 22.667,22.669 z"
       inkscape:connector-curvature="0"
       style="fill:#ffffff;stroke:#000000;stroke-width:4;stroke-linecap:round;stroke-linejoin:round" />
    <path
       id="path3159"
       d="m 171.34,85.757 c 0,12.519 -10.14,22.673 -22.66,22.673 -12.52,0 -22.67,-10.154 -22.67,-22.673 0,-12.519 10.15,-22.669 22.67,-22.669 12.52,0 22.66,10.15 22.66,22.669 z"
       inkscape:connector-curvature="0"
       style="fill:#ffffff;stroke:#000000;stroke-width:4;stroke-linecap:round;stroke-linejoin:round" />
    <path
       id="path3161"
       d="m 151.19,89.757 c 0,4.173 -3.38,7.556 -7.55,7.556 -4.17,0 -7.56,-3.383 -7.55,-7.556 -0.01,-4.173 3.38,-7.557 7.55,-7.557 4.17,0 7.55,3.384 7.55,7.557 z"
       inkscape:connector-curvature="0" />
    <path
       id="path3163"
       d="m 109.16,89.757 c 0,4.173 -3.38,7.556 -7.55,7.556 -4.174,0 -7.556,-3.383 -7.555,-7.556 -0.001,-4.173 3.381,-7.557 7.555,-7.557 4.17,0 7.55,3.384 7.55,7.557 z"
       inkscape:connector-curvature="0" />
    <path
       id="path3210"
       d="m 120.97,152.77 c -16.36,0 -29.637,-10.37 -29.637,-23.14 19.197,22.38 44.857,19.58 59.307,0 -0.7,13.1 -13.3,23.14 -29.67,23.14 z"
       inkscape:connector-curvature="0"
       style="stroke:#000000;stroke-width:3.21589994;stroke-linecap:round;stroke-linejoin:round" />
    <path
       id="path3231"
       d="m 200.79,70.931 -1.87,2.657 c 0.25,3.075 0.34,6.202 0.34,9.375 0,45.177 -36.22,80.527 -77.64,81.007 -31.213,0.36 -65.299,-22.92 -80.265,-55.76 7.616,40.25 43.316,67.25 80.455,68.02 41.86,0.86 82.26,-33.31 82.26,-78.486 0,-9.392 -1.07,-18.41 -3.28,-26.813 z"
       inkscape:connector-curvature="0"
       style="fill-opacity:0.31373004" />
    <path
       id="path3329"
       d="m 59.942,256.38 c 0,9.09 -12.561,7.64 -22.228,7.28 -9.647,-0.37 -23.709,0.18 -20.547,-9.38 2.522,-7.63 12.583,-10.64 23.069,-10.24 9.247,0.35 17.605,3.87 19.706,12.34 z"
       inkscape:connector-curvature="0"
       style="fill:#333333;stroke:#000000;stroke-width:4;stroke-linecap:round;stroke-linejoin:round" />
    <path
       id="path2399"
       d="M 80.43,39.464 C 76.764,40.902 71.239,31.654 69.531,21.213 65.814,-1.514 39.726,41.424 37.25,38.76 34.02,35.285 55.428,-26.844 76.438,22.421 c 1.879,4.405 12.266,16.172 3.992,17.043 z"
       inkscape:connector-curvature="0"
       style="fill:#333333;fill-rule:evenodd;stroke:#000000;stroke-width:4" />
    <path
       id="path7943"
       d="m 157.4,38.554 c 3.67,1.437 9.19,-7.81 10.9,-18.252 3.72,-22.727 29.81,20.211 32.28,17.548 3.23,-3.475 -18.18,-65.605 -39.19,-16.34 -1.87,4.405 -12.26,16.173 -3.99,17.044 z"
       inkscape:connector-curvature="0"
       style="fill:#333333;fill-rule:evenodd;stroke:#000000;stroke-width:4" />
    <path
       id="path7945"
       d="m 186.08,256.38 c 0,9.09 12.57,7.64 22.23,7.28 9.65,-0.37 23.71,0.18 20.55,-9.38 -2.52,-7.63 -12.58,-10.64 -23.07,-10.24 -9.25,0.35 -17.61,3.87 -19.71,12.34 z"
       inkscape:connector-curvature="0"
       style="fill:#333333;stroke:#000000;stroke-width:4;stroke-linecap:round;stroke-linejoin:round" />
    <path
       id="path7947"
       d="m 135.37,257.13 c 0,9.1 12.56,7.65 22.23,7.28 9.64,-0.36 23.71,0.19 20.54,-9.38 -2.52,-7.63 -12.58,-10.64 -23.07,-10.24 -9.24,0.36 -17.6,3.87 -19.7,12.34 z"
       inkscape:connector-curvature="0"
       style="fill:#333333;stroke:#000000;stroke-width:4;stroke-linecap:round;stroke-linejoin:round" />
    <path
       id="path7949"
       d="m 113.03,257.98 c 0,9.09 -12.56,7.64 -22.224,7.28 -9.647,-0.37 -23.709,0.18 -20.547,-9.39 2.522,-7.63 12.583,-10.64 23.069,-10.24 9.242,0.36 17.602,3.88 19.702,12.35 z"
       inkscape:connector-curvature="0"
       style="fill:#333333;stroke:#000000;stroke-width:4;stroke-linecap:round;stroke-linejoin:round" />
  </g>
  <metadata
     id="metadata36">
    <rdf:RDF>
      <cc:Work>
        <dc:format>image/svg+xml</dc:format>
        <dc:type
           rdf:resource="http://purl.org/dc/dcmitype/StillImage" />
        <cc:license
           rdf:resource="http://creativecommons.org/licenses/publicdomain/" />
        <dc:publisher>
          <cc:Agent
             rdf:about="http://openclipart.org/">
            <dc:title>Openclipart</dc:title>
          </cc:Agent>
        </dc:publisher>
      </cc:Work>
      <cc:License
         rdf:about="http://creativecommons.org/licenses/publicdomain/">
        <cc:permits
           rdf:resource="http://creativecommons.org/ns#Reproduction" />
        <cc:permits
           rdf:resource="http://creativecommons.org/ns#Distribution" />
        <cc:permits
           rdf:resource="http://creativecommons.org/ns#DerivativeWorks" />
      </cc:License>
    </rdf:RDF>
  </metadata>
</svg>
