<?xml version="1.0" encoding="UTF-8" standalone="no"?>
<svg
   xmlns:dc="http://purl.org/dc/elements/1.1/"
   xmlns:cc="http://creativecommons.org/ns#"
   xmlns:rdf="http://www.w3.org/1999/02/22-rdf-syntax-ns#"
   xmlns:svg="http://www.w3.org/2000/svg"
   xmlns="http://www.w3.org/2000/svg"
   xmlns:sodipodi="http://sodipodi.sourceforge.net/DTD/sodipodi-0.dtd"
   xmlns:inkscape="http://www.inkscape.org/namespaces/inkscape"
   id="Layer_1"
   xml:space="preserve"
   height="333.72"
   viewBox="0 0 333.7146 333.724"
   width="333.72"
   version="1.0"
   y="0px"
   x="0px"
   enable-background="new 0 0 246.996 333.724"
   inkscape:version="0.48.4 r9939"
   sodipodi:docname="polarbear.svg"><defs
     id="defs4366" /><sodipodi:namedview
     pagecolor="#ffffff"
     bordercolor="#666666"
     borderopacity="1"
     objecttolerance="10"
     gridtolerance="10"
     guidetolerance="10"
     inkscape:pageopacity="0"
     inkscape:pageshadow="2"
     inkscape:window-width="640"
     inkscape:window-height="480"
     id="namedview4364"
     showgrid="false"
     inkscape:zoom="0.70717967"
     inkscape:cx="123.5"
     inkscape:cy="166.86"
     inkscape:window-x="55"
     inkscape:window-y="24"
     inkscape:window-maximized="0"
     inkscape:current-layer="Layer_1" /><g
     id="g5159"
     transform="translate(42.995823,0)"><g
       transform="translate(-241.96,-357.14)"
       id="layer1"><path
         style="fill:#e6e6e6;stroke:#010101;stroke-width:4;stroke-linecap:round;stroke-linejoin:round"
         inkscape:connector-curvature="0"
         d="M 486.96,561.96 C 486.983,629.062 432.606,683.48 365.5,683.5 298.398,683.523 243.98,629.146 243.96,562.04 v -0.086 c -0.024,-67.102 54.354,-121.52 121.46,-121.54 67.102,-0.023 121.52,54.354 121.54,121.46 v 0.09 z"
         id="path2385" /><path
         style="fill:#010101;fill-opacity:0.3137"
         inkscape:connector-curvature="0"
         d="m 365.45,440.48 c -24.505,0 -47.314,7.255 -66.406,19.75 8.651,30.482 36.665,52.844 69.906,52.844 31.773,0 58.799,-20.421 68.688,-48.844 -20.19,-14.94 -45.16,-23.75 -72.19,-23.75 z"
         id="path3302" /><path
         style="fill:#010101;fill-opacity:0.3137"
         inkscape:connector-curvature="0"
         d="m 365.46,440.47 c -12.925,0 -25.375,2.037 -37.063,5.781 10.514,-2.456 21.603,-3.781 33.063,-3.781 31.438,0 60.108,9.878 81.688,26.094 -21.07,-17.54 -48.16,-28.09 -77.69,-28.09 z m 115.06,82.37 c 1.595,6.488 2.438,13.188 2.438,20.063 0,55.443 -54.433,100.44 -121.5,100.44 -56.084,0 -103.31,-31.459 -117.28,-74.188 3.724,63.725 56.628,114.31 121.28,114.31 67.067,0 121.5,-54.434 121.5,-121.5 0,-13.67 -2.26,-26.84 -6.44,-39.12 z"
         id="path3276" /><g
         style="fill:#e6e6e6;stroke:#010101;stroke-width:4;stroke-linecap:round;stroke-linejoin:round"
         id="g240"><path
           inkscape:connector-curvature="0"
           d="m 314.14,614.22 c -30.406,0 -55.063,24.688 -55.063,55.094 0,6.286 1.058,12.309 3,17.938 h 104.16 c 1.942,-5.629 3,-11.651 3,-17.938 0,-30.4 -24.69,-55.09 -55.1,-55.09 z"
           id="path3165" /><g
           id="g243"><path
             inkscape:connector-curvature="0"
             d="m 309.27,671.36 c 0,9.666 -6.604,17.5 -14.75,17.5 -8.146,0 -14.75,-7.834 -14.75,-17.5 0,-9.664 6.604,-17.5 14.75,-17.5 8.15,0 14.75,7.84 14.75,17.5 z"
             id="path3220" /><path
             inkscape:connector-curvature="0"
             d="m 346.27,671.36 c 0,9.666 -6.604,17.5 -14.75,17.5 -8.146,0 -14.75,-7.834 -14.75,-17.5 0,-9.664 6.604,-17.5 14.75,-17.5 8.15,0 14.75,7.84 14.75,17.5 z"
             id="path3224" /><path
             inkscape:connector-curvature="0"
             d="m 328.77,671.36 c 0,9.666 -6.604,17.5 -14.75,17.5 -8.146,0 -14.75,-7.834 -14.75,-17.5 0,-9.664 6.604,-17.5 14.75,-17.5 8.15,0 14.75,7.84 14.75,17.5 z"
             id="path3222" /></g></g><g
         style="fill:#e6e6e6;stroke:#010101;stroke-width:4;stroke-linecap:round;stroke-linejoin:round"
         id="g248"><path
           inkscape:connector-curvature="0"
           d="m 424.33,614.22 c -30.405,0 -55.094,24.688 -55.094,55.094 0,6.286 1.058,12.309 3,17.938 h 104.16 c 1.942,-5.629 3,-11.651 3,-17.938 0,-30.4 -24.66,-55.09 -55.07,-55.09 z"
           id="path3163" /><g
           id="g251"><path
             inkscape:connector-curvature="0"
             d="m 422.77,671.36 c 0,9.666 -6.604,17.5 -14.75,17.5 -8.146,0 -14.75,-7.834 -14.75,-17.5 0,-9.664 6.604,-17.5 14.75,-17.5 8.15,0 14.75,7.84 14.75,17.5 z"
             id="path3226" /><path
             inkscape:connector-curvature="0"
             d="m 459.77,671.36 c 0,9.666 -6.604,17.5 -14.75,17.5 -8.146,0 -14.75,-7.834 -14.75,-17.5 0,-9.664 6.604,-17.5 14.75,-17.5 8.15,0 14.75,7.84 14.75,17.5 z"
             id="path3228" /><path
             inkscape:connector-curvature="0"
             d="m 442.27,671.36 c 0,9.666 -6.604,17.5 -14.75,17.5 -8.146,0 -14.75,-7.834 -14.75,-17.5 0,-9.664 6.604,-17.5 14.75,-17.5 8.15,0 14.75,7.84 14.75,17.5 z"
             id="path3230" /></g></g><g
         style="fill:#010101;fill-opacity:0.3137"
         id="g256"><path
           inkscape:connector-curvature="0"
           d="m 359.31,543.66 c 0,12.69 -10.287,22.979 -22.978,22.979 -12.691,0 -22.978,-10.288 -22.978,-22.979 0,-12.689 10.287,-22.977 22.978,-22.977 12.691,0 22.98,10.29 22.98,22.98 z"
           id="path3242" /><path
           inkscape:connector-curvature="0"
           d="m 423.37,544.01 c 0,12.69 -10.287,22.978 -22.977,22.978 -12.691,0 -22.979,-10.287 -22.979,-22.978 0,-12.691 10.287,-22.978 22.979,-22.978 12.69,0.01 22.98,10.29 22.98,22.98 z"
           id="path3244" /></g><g
         id="g260"><path
           style="fill:#c49a6b;stroke:#010101;stroke-width:4;stroke-linejoin:round"
           inkscape:connector-curvature="0"
           d="m 379.99,531.79 c -9.676,-16.757 -27.332,-24.671 -31.643,-22.182 -4.698,2.712 -6.259,21.722 3.415,38.479 7.497,12.984 17.689,21.896 25.526,23.15 -3.896,5.563 -4.027,14.088 0.271,21.531 1.652,2.861 3.751,5.23 6.12,7.039 -0.908,-6.978 1.611,-13.561 7.09,-16.723 5.477,-3.162 12.438,-2.052 18.025,2.223 -0.381,-2.957 -1.355,-5.973 -3.008,-8.836 -4.298,-7.443 -11.766,-11.581 -18.539,-10.984 2.83,-7.41 0.24,-20.71 -7.26,-33.7 z"
           id="path3310" /><path
           style="fill:#010101;fill-opacity:0.3137"
           inkscape:connector-curvature="0"
           d="m 364.81,515.26 c 3.069,3.456 6.102,7.586 8.813,12.281 9.212,15.954 11.454,31.931 5,35.656 -6.453,3.726 -19.163,-6.202 -28.375,-22.156 -1.807,-3.13 -3.336,-6.242 -4.594,-9.281 1.053,5.264 2.996,10.893 6.125,16.313 7.496,12.983 17.695,21.901 25.531,23.156 -3.896,5.563 -4.047,14.088 0.25,21.531 1.652,2.862 3.756,5.223 6.125,7.031 -0.908,-6.978 1.617,-13.556 7.094,-16.719 5.478,-3.162 12.444,-2.056 18.031,2.219 -0.381,-2.957 -1.378,-5.95 -3.031,-8.813 -4.297,-7.443 -11.758,-11.597 -18.531,-11 2.832,-7.415 0.246,-20.704 -7.25,-33.688 -4.15,-7.19 -9.78,-12.72 -15.18,-16.53 z"
           id="path3348" /><path
           style="fill:#010101"
           inkscape:connector-curvature="0"
           d="m 362.45,522.72 c 0,1.933 -1.566,3.5 -3.5,3.5 -1.934,0 -3.5,-1.567 -3.5,-3.5 0,-1.933 1.566,-3.5 3.5,-3.5 1.934,0 3.5,1.56 3.5,3.5 z"
           id="path3346" /></g><g
         style="fill:#e6e6e6;stroke:#010101;stroke-width:4;stroke-linecap:round;stroke-linejoin:round"
         id="g265"><g
           id="g267"><path
             inkscape:connector-curvature="0"
             d="m 352.44,527.5 c 6.345,10.99 2.579,25.043 -8.41,31.388 -10.991,6.345 -25.043,2.58 -31.388,-8.41 -6.345,-10.989 -2.58,-25.043 8.41,-31.388 10.99,-6.35 25.04,-2.58 31.39,8.41 z"
             id="path3159" /><g
             id="g270"><path
               inkscape:connector-curvature="0"
               d="m 339.77,544.49 c 4.305,2.486 6.023,7.566 3.84,11.35 -2.184,3.781 -7.443,4.834 -11.748,2.348 -4.305,-2.484 -6.024,-7.566 -3.84,-11.348 2.18,-3.79 7.44,-4.84 11.75,-2.35 z"
               id="path3264" /><path
               inkscape:connector-curvature="0"
               d="m 349.69,527.31 c 4.305,2.484 6.024,7.565 3.841,11.348 -2.184,3.783 -7.444,4.834 -11.748,2.349 -4.305,-2.485 -6.024,-7.565 -3.84,-11.349 2.18,-3.79 7.44,-4.84 11.75,-2.35 z"
               id="path3266" /><path
               inkscape:connector-curvature="0"
               d="m 348.98,538.33 c 4.305,2.485 6.024,7.565 3.841,11.349 -2.185,3.782 -7.444,4.834 -11.749,2.348 -4.305,-2.484 -6.024,-7.565 -3.84,-11.348 2.18,-3.78 7.44,-4.83 11.75,-2.35 z"
               id="path3268" /></g></g><g
           id="g275"><path
             inkscape:connector-curvature="0"
             d="m 416.57,550.48 c -6.345,10.989 -20.397,14.755 -31.388,8.41 -10.99,-6.346 -14.756,-20.398 -8.41,-31.389 6.345,-10.99 20.397,-14.755 31.387,-8.41 10.99,6.34 14.76,20.4 8.41,31.39 z"
             id="path3161" /><g
             id="g278"><path
               inkscape:connector-curvature="0"
               d="m 390.2,544.92 c -4.305,2.485 -6.023,7.566 -3.84,11.349 2.183,3.783 7.443,4.834 11.748,2.349 4.305,-2.485 6.023,-7.566 3.84,-11.349 -2.183,-3.783 -7.45,-4.83 -11.75,-2.35 z"
               id="path3270" /><path
               inkscape:connector-curvature="0"
               d="m 380.28,527.75 c -4.305,2.485 -6.024,7.566 -3.841,11.349 2.183,3.783 7.443,4.833 11.748,2.349 4.305,-2.486 6.024,-7.566 3.841,-11.349 -2.183,-3.783 -7.45,-4.84 -11.75,-2.35 z"
               id="path3272" /><path
               inkscape:connector-curvature="0"
               d="m 380.99,538.77 c -4.305,2.486 -6.024,7.566 -3.841,11.35 2.184,3.781 7.443,4.833 11.748,2.348 4.305,-2.485 6.024,-7.566 3.841,-11.348 -2.19,-3.79 -7.45,-4.84 -11.75,-2.35 z"
               id="path3274" /></g></g></g><g
         id="g283"><path
           style="fill:#e6e6e6;stroke:#010101;stroke-width:4;stroke-linecap:round;stroke-linejoin:round"
           inkscape:connector-curvature="0"
           d="m 312.8,359.14 c -11.055,0 -20.031,8.976 -20.031,20.031 0,7.155 3.758,13.426 9.406,16.969 -5.971,10.554 -9.406,22.735 -9.406,35.719 0,40.134 32.553,72.719 72.688,72.719 40.135,0 72.719,-32.584 72.719,-72.719 0,-12.984 -3.436,-25.165 -9.406,-35.719 5.636,-3.545 9.406,-9.824 9.406,-16.969 0,-11.056 -8.977,-20.031 -20.031,-20.031 -7.145,0 -13.393,3.771 -16.938,9.406 -10.56,-5.979 -22.757,-9.406 -35.75,-9.406 -12.99,0 -25.161,3.43 -35.719,9.406 -3.55,-5.64 -9.8,-9.41 -16.94,-9.41 z"
           id="path2479" /><g
           id="g286"><path
             style="fill:#010101"
             inkscape:connector-curvature="0"
             d="m 349.51,461.23 c 5.216,-5.563 27.111,-5.588 31.987,0.695 4.63,5.966 -6.954,22.947 -15.993,22.251 -9.02,-0.69 -20.88,-17.74 -16,-22.94 z"
             id="path3192" /><g
             id="g289"><g
               id="g291"><path
                 style="fill:#ffffff;stroke:#010101;stroke-width:1.84609997;stroke-linecap:round;stroke-linejoin:round"
                 inkscape:connector-curvature="0"
                 d="m 408.9,417.49 c 0,11.3 -9.16,20.459 -20.459,20.459 -11.299,0 -20.459,-9.16 -20.459,-20.459 0,-11.299 9.16,-20.459 20.459,-20.459 11.299,0 20.46,9.16 20.46,20.46 z"
                 id="path3179" /><path
                 style="fill:#010101"
                 inkscape:connector-curvature="0"
                 d="m 390.09,421.42 c 0,3.65 -2.959,6.61 -6.609,6.61 -3.65,0 -6.61,-2.959 -6.61,-6.61 0,-3.651 2.96,-6.61 6.61,-6.61 3.65,0 6.61,2.96 6.61,6.61 z"
                 id="path3183" /></g><g
               id="g295"><path
                 style="fill:#ffffff;stroke:#010101;stroke-width:1.84609997;stroke-linecap:round;stroke-linejoin:round"
                 inkscape:connector-curvature="0"
                 d="m 363.57,417.49 c 0,11.3 -9.16,20.459 -20.459,20.459 -11.3,0 -20.459,-9.16 -20.459,-20.459 0,-11.299 9.16,-20.459 20.459,-20.459 11.3,0 20.46,9.16 20.46,20.46 z"
                 id="path3177" /><path
                 style="fill:#010101"
                 inkscape:connector-curvature="0"
                 d="m 355.68,421.42 c 0,3.65 -2.959,6.61 -6.609,6.61 -3.65,0 -6.61,-2.959 -6.61,-6.61 0,-3.651 2.96,-6.61 6.61,-6.61 3.65,0 6.61,2.96 6.61,6.61 z"
                 id="path2515" /></g></g></g><path
           style="fill:#010101;fill-opacity:0.3137"
           inkscape:connector-curvature="0"
           d="m 433.05,405.08 c 0.742,4.151 1.125,8.417 1.125,12.781 0,40.134 -32.584,72.719 -72.719,72.719 -30.638,0 -56.839,-19.003 -67.531,-45.844 6.082,34 35.792,59.844 71.531,59.844 40.135,0 72.719,-32.584 72.719,-72.719 -0.01,-9.47 -1.83,-18.49 -5.13,-26.78 z"
           id="path2525" /><g
           style="fill:#666666;stroke:#010101;stroke-width:4;stroke-linecap:round;stroke-linejoin:round"
           id="g300"><path
             inkscape:connector-curvature="0"
             d="m 418.38,367.64 c -4.018,0 -7.525,2.116 -9.526,5.279 6.144,4.138 11.433,9.422 15.567,15.568 3.153,-2.003 5.255,-5.542 5.255,-9.552 0,-6.24 -5.07,-11.3 -11.3,-11.3 z"
             id="path2483" /><path
             inkscape:connector-curvature="0"
             d="m 312.75,367.64 c 4.018,0 7.526,2.116 9.527,5.279 -6.144,4.138 -11.433,9.422 -15.567,15.568 -3.153,-2.003 -5.255,-5.542 -5.255,-9.552 -0.01,-6.24 5.05,-11.3 11.29,-11.3 z"
             id="path2523" /></g></g></g></g><metadata
     id="metadata4362"><rdf:RDF><cc:Work><dc:format>image/svg+xml</dc:format><dc:type
           rdf:resource="http://purl.org/dc/dcmitype/StillImage" /><cc:license
           rdf:resource="http://creativecommons.org/licenses/publicdomain/" /><dc:publisher><cc:Agent
             rdf:about="http://openclipart.org/"><dc:title>Openclipart</dc:title></cc:Agent></dc:publisher></cc:Work><cc:License
         rdf:about="http://creativecommons.org/licenses/publicdomain/"><cc:permits
           rdf:resource="http://creativecommons.org/ns#Reproduction" /><cc:permits
           rdf:resource="http://creativecommons.org/ns#Distribution" /><cc:permits
           rdf:resource="http://creativecommons.org/ns#DerivativeWorks" /></cc:License></rdf:RDF></metadata></svg>